# MagicaVoxel @ Ephtracy

# group
g BaseTile

# material
mtllib BaseTile.mtl
usemtl palette

# normals
vn -1 0 0
vn 1 0 0
vn 0 0 1
vn 0 0 -1
vn 0 -1 0
vn 0 1 0

# texcoords
vt 0.00195313 0.5
vt 0.373047 0.5
vt 0.748047 0.5
vt 0.970703 0.5

# verts
v -22.5 9 3.5
v -22.5 9 -6.5
v -22.5 14 3.5
v -22.5 14 -6.5
v -22.5 18 -3.5
v -22.5 18 -12.5
v -22.5 23 -12.5
v -22.5 23 -13.5
v -22.5 28 -3.5
v -22.5 28 -13.5
v -19.5 0 19.5
v -19.5 0 -20.5
v -19.5 9 3.5
v -19.5 9 -6.5
v -19.5 12 19.5
v -19.5 12 3.5
v -19.5 12 -6.5
v -19.5 12 -20.5
v -19.5 14 3.5
v -19.5 14 -6.5
v -19.5 18 -3.5
v -19.5 18 -12.5
v -19.5 22 19.5
v -19.5 22 -3.5
v -19.5 22 -12.5
v -19.5 22 -20.5
v -19.5 23 -12.5
v -19.5 23 -13.5
v -19.5 28 -3.5
v -19.5 28 -13.5
v -19.5 29 19.5
v -19.5 29 -20.5
v -19.5 40 19.5
v -19.5 40 -20.5
v -9.5 12 -20.5
v -9.5 12 -22.5
v -9.5 17 -20.5
v -9.5 17 -22.5
v -4.5 17 -20.5
v -4.5 17 -22.5
v -4.5 22 -20.5
v -4.5 26 -20.5
v -4.5 26 -22.5
v 10.5 11 -20.5
v 10.5 11 -22.5
v 10.5 12 -20.5
v 10.5 16 -20.5
v 10.5 16 -22.5
v -4.5 12 -20.5
v -4.5 12 -22.5
v -4.5 17 -20.5
v -4.5 17 -22.5
v 4.5 17 -20.5
v 4.5 17 -22.5
v 4.5 22 -20.5
v 4.5 26 -20.5
v 4.5 26 -22.5
v 15.5 11 -20.5
v 15.5 11 -22.5
v 15.5 12 -20.5
v 15.5 16 -20.5
v 15.5 16 -22.5
v 20.5 0 19.5
v 20.5 0 -20.5
v 20.5 9 3.5
v 20.5 9 -6.5
v 20.5 12 19.5
v 20.5 12 3.5
v 20.5 12 -6.5
v 20.5 12 -20.5
v 20.5 14 3.5
v 20.5 14 -6.5
v 20.5 18 -3.5
v 20.5 18 -12.5
v 20.5 22 19.5
v 20.5 22 -3.5
v 20.5 22 -12.5
v 20.5 22 -20.5
v 20.5 23 -12.5
v 20.5 23 -13.5
v 20.5 28 -3.5
v 20.5 28 -13.5
v 20.5 29 19.5
v 20.5 29 -20.5
v 20.5 40 19.5
v 20.5 40 -20.5
v 22.5 9 3.5
v 22.5 9 -6.5
v 22.5 14 3.5
v 22.5 14 -6.5
v 22.5 18 -3.5
v 22.5 18 -12.5
v 22.5 23 -12.5
v 22.5 23 -13.5
v 22.5 28 -3.5
v 22.5 28 -13.5
v -19.5 0 19.5
v -19.5 12 19.5
v -19.5 22 19.5
v -19.5 29 19.5
v -19.5 40 19.5
v 20.5 0 19.5
v 20.5 12 19.5
v 20.5 22 19.5
v 20.5 29 19.5
v 20.5 40 19.5
v -22.5 9 3.5
v -22.5 14 3.5
v -19.5 9 3.5
v -19.5 12 3.5
v -19.5 14 3.5
v 20.5 9 3.5
v 20.5 12 3.5
v 20.5 14 3.5
v 22.5 9 3.5
v 22.5 14 3.5
v -22.5 18 -3.5
v -22.5 28 -3.5
v -19.5 18 -3.5
v -19.5 22 -3.5
v -19.5 28 -3.5
v 20.5 18 -3.5
v 20.5 22 -3.5
v 20.5 28 -3.5
v 22.5 18 -3.5
v 22.5 28 -3.5
v -22.5 9 -6.5
v -22.5 14 -6.5
v -19.5 9 -6.5
v -19.5 12 -6.5
v -19.5 14 -6.5
v 20.5 9 -6.5
v 20.5 12 -6.5
v 20.5 14 -6.5
v 22.5 9 -6.5
v 22.5 14 -6.5
v -22.5 18 -12.5
v -22.5 23 -12.5
v -19.5 18 -12.5
v -19.5 22 -12.5
v -19.5 23 -12.5
v 20.5 18 -12.5
v 20.5 22 -12.5
v 20.5 23 -12.5
v 22.5 18 -12.5
v 22.5 23 -12.5
v -22.5 23 -13.5
v -22.5 28 -13.5
v -19.5 23 -13.5
v -19.5 28 -13.5
v 20.5 23 -13.5
v 20.5 28 -13.5
v 22.5 23 -13.5
v 22.5 28 -13.5
v -19.5 0 -20.5
v -19.5 12 -20.5
v -19.5 22 -20.5
v -19.5 29 -20.5
v -19.5 40 -20.5
v -9.5 12 -20.5
v -9.5 17 -20.5
v -4.5 12 -20.5
v -4.5 17 -20.5
v -4.5 22 -20.5
v -4.5 26 -20.5
v 4.5 17 -20.5
v 4.5 22 -20.5
v 4.5 26 -20.5
v 10.5 11 -20.5
v 10.5 12 -20.5
v 10.5 16 -20.5
v 15.5 11 -20.5
v 15.5 12 -20.5
v 15.5 16 -20.5
v 20.5 0 -20.5
v 20.5 12 -20.5
v 20.5 22 -20.5
v 20.5 29 -20.5
v 20.5 40 -20.5
v -9.5 12 -22.5
v -9.5 17 -22.5
v -4.5 12 -22.5
v -4.5 17 -22.5
v -4.5 26 -22.5
v 4.5 17 -22.5
v 4.5 26 -22.5
v 10.5 11 -22.5
v 10.5 16 -22.5
v 15.5 11 -22.5
v 15.5 16 -22.5
v -19.5 0 19.5
v 20.5 0 19.5
v -19.5 0 -20.5
v 20.5 0 -20.5
v -22.5 9 3.5
v -19.5 9 3.5
v 20.5 9 3.5
v 22.5 9 3.5
v -22.5 9 -6.5
v -19.5 9 -6.5
v 20.5 9 -6.5
v 22.5 9 -6.5
v 10.5 11 -20.5
v 15.5 11 -20.5
v 10.5 11 -22.5
v 15.5 11 -22.5
v -9.5 12 -20.5
v -4.5 12 -20.5
v -9.5 12 -22.5
v -4.5 12 -22.5
v -4.5 17 -20.5
v 4.5 17 -20.5
v -4.5 17 -22.5
v 4.5 17 -22.5
v -22.5 18 -3.5
v -19.5 18 -3.5
v 20.5 18 -3.5
v 22.5 18 -3.5
v -22.5 18 -12.5
v -19.5 18 -12.5
v 20.5 18 -12.5
v 22.5 18 -12.5
v -22.5 23 -12.5
v -19.5 23 -12.5
v 20.5 23 -12.5
v 22.5 23 -12.5
v -22.5 23 -13.5
v -19.5 23 -13.5
v 20.5 23 -13.5
v 22.5 23 -13.5
v -22.5 14 3.5
v -19.5 14 3.5
v 20.5 14 3.5
v 22.5 14 3.5
v -22.5 14 -6.5
v -19.5 14 -6.5
v 20.5 14 -6.5
v 22.5 14 -6.5
v 10.5 16 -20.5
v 15.5 16 -20.5
v 10.5 16 -22.5
v 15.5 16 -22.5
v -9.5 17 -20.5
v -4.5 17 -20.5
v -9.5 17 -22.5
v -4.5 17 -22.5
v -4.5 26 -20.5
v 4.5 26 -20.5
v -4.5 26 -22.5
v 4.5 26 -22.5
v -22.5 28 -3.5
v -19.5 28 -3.5
v 20.5 28 -3.5
v 22.5 28 -3.5
v -22.5 28 -13.5
v -19.5 28 -13.5
v 20.5 28 -13.5
v 22.5 28 -13.5
v -19.5 40 19.5
v 20.5 40 19.5
v -19.5 40 -20.5
v 20.5 40 -20.5

# faces
f 3/1/1 2/1/1 1/1/1
f 4/1/1 2/1/1 3/1/1
f 7/1/1 6/1/1 5/1/1
f 9/1/1 7/1/1 5/1/1
f 9/1/1 8/1/1 7/1/1
f 10/1/1 8/1/1 9/1/1
f 13/4/1 12/4/1 11/4/1
f 14/4/1 12/4/1 13/4/1
f 15/4/1 13/4/1 11/4/1
f 16/4/1 13/4/1 15/4/1
f 17/4/1 12/4/1 14/4/1
f 18/4/1 12/4/1 17/4/1
f 19/1/1 16/1/1 15/1/1
f 20/1/1 18/1/1 17/1/1
f 21/1/1 20/1/1 19/1/1
f 22/1/1 18/1/1 20/1/1
f 22/1/1 20/1/1 21/1/1
f 23/1/1 19/1/1 15/1/1
f 23/1/1 21/1/1 19/1/1
f 24/1/1 21/1/1 23/1/1
f 25/1/1 18/1/1 22/1/1
f 26/1/1 18/1/1 25/1/1
f 27/2/1 26/2/1 25/2/1
f 28/2/1 26/2/1 27/2/1
f 29/2/1 24/2/1 23/2/1
f 30/2/1 26/2/1 28/2/1
f 31/2/1 29/2/1 23/2/1
f 31/2/1 30/2/1 29/2/1
f 32/2/1 26/2/1 30/2/1
f 32/2/1 30/2/1 31/2/1
f 33/3/1 32/3/1 31/3/1
f 34/3/1 32/3/1 33/3/1
f 37/1/1 36/1/1 35/1/1
f 38/1/1 36/1/1 37/1/1
f 41/1/1 40/1/1 39/1/1
f 42/1/1 40/1/1 41/1/1
f 43/1/1 40/1/1 42/1/1
f 46/1/1 45/1/1 44/1/1
f 47/1/1 45/1/1 46/1/1
f 48/1/1 45/1/1 47/1/1
f 49/1/2 50/1/2 51/1/2
f 51/1/2 50/1/2 52/1/2
f 53/1/2 54/1/2 55/1/2
f 55/1/2 54/1/2 56/1/2
f 56/1/2 54/1/2 57/1/2
f 58/1/2 59/1/2 60/1/2
f 60/1/2 59/1/2 61/1/2
f 61/1/2 59/1/2 62/1/2
f 63/4/2 64/4/2 65/4/2
f 65/4/2 64/4/2 66/4/2
f 63/4/2 65/4/2 67/4/2
f 67/4/2 65/4/2 68/4/2
f 66/4/2 64/4/2 69/4/2
f 69/4/2 64/4/2 70/4/2
f 67/1/2 68/1/2 71/1/2
f 69/1/2 70/1/2 72/1/2
f 71/1/2 72/1/2 73/1/2
f 72/1/2 70/1/2 74/1/2
f 73/1/2 72/1/2 74/1/2
f 67/1/2 71/1/2 75/1/2
f 71/1/2 73/1/2 75/1/2
f 75/1/2 73/1/2 76/1/2
f 74/1/2 70/1/2 77/1/2
f 77/1/2 70/1/2 78/1/2
f 77/2/2 78/2/2 79/2/2
f 79/2/2 78/2/2 80/2/2
f 75/2/2 76/2/2 81/2/2
f 80/2/2 78/2/2 82/2/2
f 75/2/2 81/2/2 83/2/2
f 81/2/2 82/2/2 83/2/2
f 82/2/2 78/2/2 84/2/2
f 83/2/2 82/2/2 84/2/2
f 83/3/2 84/3/2 85/3/2
f 85/3/2 84/3/2 86/3/2
f 87/1/2 88/1/2 89/1/2
f 89/1/2 88/1/2 90/1/2
f 91/1/2 92/1/2 93/1/2
f 91/1/2 93/1/2 95/1/2
f 93/1/2 94/1/2 95/1/2
f 95/1/2 94/1/2 96/1/2
f 102/4/3 98/4/3 97/4/3
f 103/1/3 99/1/3 98/1/3
f 103/4/3 98/4/3 102/4/3
f 104/2/3 100/2/3 99/2/3
f 104/1/3 99/1/3 103/1/3
f 105/3/3 101/3/3 100/3/3
f 105/2/3 100/2/3 104/2/3
f 106/3/3 101/3/3 105/3/3
f 109/1/3 108/1/3 107/1/3
f 110/1/3 108/1/3 109/1/3
f 111/1/3 108/1/3 110/1/3
f 115/1/3 113/1/3 112/1/3
f 115/1/3 114/1/3 113/1/3
f 116/1/3 114/1/3 115/1/3
f 119/1/3 118/1/3 117/1/3
f 120/1/3 118/1/3 119/1/3
f 121/1/3 118/1/3 120/1/3
f 125/1/3 123/1/3 122/1/3
f 125/1/3 124/1/3 123/1/3
f 126/1/3 124/1/3 125/1/3
f 127/1/4 128/1/4 129/1/4
f 129/1/4 128/1/4 130/1/4
f 130/1/4 128/1/4 131/1/4
f 132/1/4 133/1/4 135/1/4
f 133/1/4 134/1/4 135/1/4
f 135/1/4 134/1/4 136/1/4
f 137/1/4 138/1/4 139/1/4
f 139/1/4 138/1/4 140/1/4
f 140/1/4 138/1/4 141/1/4
f 142/1/4 143/1/4 145/1/4
f 143/1/4 144/1/4 145/1/4
f 145/1/4 144/1/4 146/1/4
f 147/1/4 148/1/4 149/1/4
f 149/1/4 148/1/4 150/1/4
f 151/1/4 152/1/4 153/1/4
f 153/1/4 152/1/4 154/1/4
f 155/4/4 156/4/4 160/4/4
f 156/1/4 157/1/4 160/1/4
f 160/1/4 157/1/4 161/1/4
f 155/4/4 160/4/4 162/4/4
f 161/1/4 157/1/4 163/1/4
f 157/2/4 158/2/4 164/2/4
f 163/1/4 157/1/4 164/1/4
f 164/2/4 158/2/4 165/2/4
f 162/1/4 163/1/4 166/1/4
f 165/2/4 158/2/4 168/2/4
f 155/4/4 162/4/4 169/4/4
f 166/1/4 167/1/4 170/1/4
f 169/4/4 162/4/4 170/4/4
f 162/1/4 166/1/4 170/1/4
f 170/1/4 167/1/4 171/1/4
f 155/4/4 169/4/4 172/4/4
f 171/1/4 167/1/4 174/1/4
f 172/4/4 173/4/4 175/4/4
f 155/4/4 172/4/4 175/4/4
f 173/1/4 174/1/4 176/1/4
f 175/4/4 173/4/4 176/4/4
f 167/2/4 168/2/4 177/2/4
f 176/1/4 174/1/4 177/1/4
f 174/1/4 167/1/4 177/1/4
f 158/3/4 159/3/4 178/3/4
f 177/2/4 168/2/4 178/2/4
f 168/2/4 158/2/4 178/2/4
f 178/3/4 159/3/4 179/3/4
f 180/1/4 181/1/4 182/1/4
f 182/1/4 181/1/4 183/1/4
f 183/1/4 184/1/4 185/1/4
f 185/1/4 184/1/4 186/1/4
f 187/1/4 188/1/4 189/1/4
f 189/1/4 188/1/4 190/1/4
f 193/4/5 192/4/5 191/4/5
f 194/4/5 192/4/5 193/4/5
f 199/1/5 196/1/5 195/1/5
f 200/1/5 196/1/5 199/1/5
f 201/1/5 198/1/5 197/1/5
f 202/1/5 198/1/5 201/1/5
f 205/1/5 204/1/5 203/1/5
f 206/1/5 204/1/5 205/1/5
f 209/1/5 208/1/5 207/1/5
f 210/1/5 208/1/5 209/1/5
f 213/1/5 212/1/5 211/1/5
f 214/1/5 212/1/5 213/1/5
f 219/1/5 216/1/5 215/1/5
f 220/1/5 216/1/5 219/1/5
f 221/1/5 218/1/5 217/1/5
f 222/1/5 218/1/5 221/1/5
f 227/1/5 224/1/5 223/1/5
f 228/1/5 224/1/5 227/1/5
f 229/1/5 226/1/5 225/1/5
f 230/1/5 226/1/5 229/1/5
f 231/1/6 232/1/6 235/1/6
f 235/1/6 232/1/6 236/1/6
f 233/1/6 234/1/6 237/1/6
f 237/1/6 234/1/6 238/1/6
f 239/1/6 240/1/6 241/1/6
f 241/1/6 240/1/6 242/1/6
f 243/1/6 244/1/6 245/1/6
f 245/1/6 244/1/6 246/1/6
f 247/1/6 248/1/6 249/1/6
f 249/1/6 248/1/6 250/1/6
f 251/1/6 252/1/6 255/1/6
f 255/1/6 252/1/6 256/1/6
f 253/1/6 254/1/6 257/1/6
f 257/1/6 254/1/6 258/1/6
f 259/3/6 260/3/6 261/3/6
f 261/3/6 260/3/6 262/3/6
