# MagicaVoxel @ Ephtracy

# group
g casa

# material
mtllib casa.mtl
usemtl palette

# normals
vn -1 0 0
vn 1 0 0
vn 0 0 1
vn 0 0 -1
vn 0 -1 0
vn 0 1 0

# texcoords
vt 0.486328 0.5
vt 0.869141 0.5
vt 0.962891 0.5
vt 0.982422 0.5

# verts
v -6 11 8
v -6 11 -13
v -6 12 8
v -6 12 -13
v -5 0 7
v -5 0 -12
v -5 11 7
v -5 11 -12
v -5 12 8
v -5 12 -13
v -5 13 8
v -5 13 -13
v -4 13 8
v -4 13 -13
v -4 14 8
v -4 14 -13
v -3 14 8
v -3 14 -13
v -3 15 8
v -3 15 -13
v -2 15 8
v -2 15 -13
v -2 16 8
v -2 16 -13
v -1 16 8
v -1 16 -13
v -1 17 8
v -1 17 -13
v 0 17 8
v 0 17 -13
v 0 18 8
v 0 18 -13
v 1 0 7
v 1 0 6
v 1 7 7
v 1 7 6
v 1 18 8
v 1 18 -13
v 1 19 8
v 1 19 -13
v 2 17 8
v 2 17 7
v 2 17 -12
v 2 17 -13
v 2 18 8
v 2 18 7
v 2 18 -12
v 2 18 -13
v 3 16 8
v 3 16 7
v 3 16 -12
v 3 16 -13
v 3 17 8
v 3 17 7
v 3 17 -12
v 3 17 -13
v 4 15 8
v 4 15 7
v 4 15 -12
v 4 15 -13
v 4 16 8
v 4 16 7
v 4 16 -12
v 4 16 -13
v 5 14 8
v 5 14 7
v 5 14 -12
v 5 14 -13
v 5 15 8
v 5 15 7
v 5 15 -12
v 5 15 -13
v 6 5 7
v 6 5 6
v 6 9 7
v 6 9 6
v 6 13 8
v 6 13 7
v 6 13 -12
v 6 13 -13
v 6 14 8
v 6 14 7
v 6 14 -12
v 6 14 -13
v 7 12 8
v 7 12 7
v 7 12 -12
v 7 12 -13
v 7 13 8
v 7 13 7
v 7 13 -12
v 7 13 -13
v 8 11 8
v 8 11 7
v 8 11 -12
v 8 11 -13
v 8 12 8
v 8 12 7
v 8 12 -12
v 8 12 -13
v -5 11 8
v -5 11 7
v -5 11 -12
v -5 11 -13
v -5 12 8
v -5 12 7
v -5 12 -12
v -5 12 -13
v -4 12 8
v -4 12 7
v -4 12 -12
v -4 12 -13
v -4 13 8
v -4 13 7
v -4 13 -12
v -4 13 -13
v -3 0 7
v -3 0 6
v -3 7 7
v -3 7 6
v -3 13 8
v -3 13 7
v -3 13 -12
v -3 13 -13
v -3 14 8
v -3 14 7
v -3 14 -12
v -3 14 -13
v -2 14 8
v -2 14 7
v -2 14 -12
v -2 14 -13
v -2 15 8
v -2 15 7
v -2 15 -12
v -2 15 -13
v -1 15 8
v -1 15 7
v -1 15 -12
v -1 15 -13
v -1 16 8
v -1 16 7
v -1 16 -12
v -1 16 -13
v 0 16 8
v 0 16 7
v 0 16 -12
v 0 16 -13
v 0 17 8
v 0 17 7
v 0 17 -12
v 0 17 -13
v 1 17 8
v 1 17 7
v 1 17 -12
v 1 17 -13
v 1 18 8
v 1 18 7
v 1 18 -12
v 1 18 -13
v 2 18 8
v 2 18 -13
v 2 19 8
v 2 19 -13
v 3 5 7
v 3 5 6
v 3 9 7
v 3 9 6
v 3 17 8
v 3 17 -13
v 3 18 8
v 3 18 -13
v 4 16 8
v 4 16 -13
v 4 17 8
v 4 17 -13
v 5 15 8
v 5 15 -13
v 5 16 8
v 5 16 -13
v 6 14 8
v 6 14 -13
v 6 15 8
v 6 15 -13
v 7 4 1
v 7 4 -8
v 7 10 1
v 7 10 -8
v 7 13 8
v 7 13 -13
v 7 14 8
v 7 14 -13
v 8 0 7
v 8 0 -12
v 8 4 1
v 8 4 -8
v 8 10 1
v 8 10 -8
v 8 11 7
v 8 11 -12
v 8 12 8
v 8 12 -13
v 8 13 8
v 8 13 -13
v 9 11 8
v 9 11 -13
v 9 12 8
v 9 12 -13
v -6 11 8
v -6 12 8
v -5 11 8
v -5 12 8
v -5 13 8
v -4 12 8
v -4 13 8
v -4 14 8
v -3 13 8
v -3 14 8
v -3 15 8
v -2 14 8
v -2 15 8
v -2 16 8
v -1 15 8
v -1 16 8
v -1 17 8
v 0 16 8
v 0 17 8
v 0 18 8
v 1 17 8
v 1 18 8
v 1 19 8
v 2 17 8
v 2 18 8
v 2 19 8
v 3 16 8
v 3 17 8
v 3 18 8
v 4 15 8
v 4 16 8
v 4 17 8
v 5 14 8
v 5 15 8
v 5 16 8
v 6 13 8
v 6 14 8
v 6 15 8
v 7 12 8
v 7 13 8
v 7 14 8
v 8 11 8
v 8 12 8
v 8 13 8
v 9 11 8
v 9 12 8
v -5 0 7
v -5 11 7
v -5 12 7
v -4 12 7
v -4 13 7
v -3 0 7
v -3 7 7
v -3 13 7
v -3 14 7
v -2 14 7
v -2 15 7
v -1 15 7
v -1 16 7
v 0 16 7
v 0 17 7
v 1 0 7
v 1 7 7
v 1 17 7
v 1 18 7
v 2 17 7
v 2 18 7
v 3 5 7
v 3 9 7
v 3 16 7
v 3 17 7
v 4 15 7
v 4 16 7
v 5 14 7
v 5 15 7
v 6 5 7
v 6 9 7
v 6 13 7
v 6 14 7
v 7 12 7
v 7 13 7
v 8 0 7
v 8 11 7
v 8 12 7
v -3 0 6
v -3 7 6
v 1 0 6
v 1 7 6
v 3 5 6
v 3 9 6
v 6 5 6
v 6 9 6
v 7 4 -8
v 7 10 -8
v 8 4 -8
v 8 10 -8
v 7 4 1
v 7 10 1
v 8 4 1
v 8 10 1
v -5 0 -12
v -5 11 -12
v -5 12 -12
v -4 12 -12
v -4 13 -12
v -3 13 -12
v -3 14 -12
v -2 14 -12
v -2 15 -12
v -1 15 -12
v -1 16 -12
v 0 16 -12
v 0 17 -12
v 1 17 -12
v 1 18 -12
v 2 17 -12
v 2 18 -12
v 3 16 -12
v 3 17 -12
v 4 15 -12
v 4 16 -12
v 5 14 -12
v 5 15 -12
v 6 13 -12
v 6 14 -12
v 7 12 -12
v 7 13 -12
v 8 0 -12
v 8 11 -12
v 8 12 -12
v -6 11 -13
v -6 12 -13
v -5 11 -13
v -5 12 -13
v -5 13 -13
v -4 12 -13
v -4 13 -13
v -4 14 -13
v -3 13 -13
v -3 14 -13
v -3 15 -13
v -2 14 -13
v -2 15 -13
v -2 16 -13
v -1 15 -13
v -1 16 -13
v -1 17 -13
v 0 16 -13
v 0 17 -13
v 0 18 -13
v 1 17 -13
v 1 18 -13
v 1 19 -13
v 2 17 -13
v 2 18 -13
v 2 19 -13
v 3 16 -13
v 3 17 -13
v 3 18 -13
v 4 15 -13
v 4 16 -13
v 4 17 -13
v 5 14 -13
v 5 15 -13
v 5 16 -13
v 6 13 -13
v 6 14 -13
v 6 15 -13
v 7 12 -13
v 7 13 -13
v 7 14 -13
v 8 11 -13
v 8 12 -13
v 8 13 -13
v 9 11 -13
v 9 12 -13
v -5 0 7
v -3 0 7
v 1 0 7
v 8 0 7
v -3 0 6
v 1 0 6
v -3 0 5
v 1 0 5
v -5 0 -12
v 8 0 -12
v -3 7 7
v 1 7 7
v -3 7 6
v 1 7 6
v 3 9 7
v 6 9 7
v 3 9 6
v 6 9 6
v 7 10 1
v 8 10 1
v 7 10 -8
v 8 10 -8
v -6 11 8
v -5 11 8
v 8 11 8
v 9 11 8
v -5 11 7
v 8 11 7
v -5 11 -12
v 8 11 -12
v -6 11 -13
v -5 11 -13
v 8 11 -13
v 9 11 -13
v -5 12 8
v -4 12 8
v 7 12 8
v 8 12 8
v -5 12 7
v -4 12 7
v 7 12 7
v 8 12 7
v -5 12 -12
v -4 12 -12
v 7 12 -12
v 8 12 -12
v -5 12 -13
v -4 12 -13
v 7 12 -13
v 8 12 -13
v -4 13 8
v -3 13 8
v 6 13 8
v 7 13 8
v -4 13 7
v -3 13 7
v 6 13 7
v 7 13 7
v -4 13 -12
v -3 13 -12
v 6 13 -12
v 7 13 -12
v -4 13 -13
v -3 13 -13
v 6 13 -13
v 7 13 -13
v -3 14 8
v -2 14 8
v 5 14 8
v 6 14 8
v -3 14 7
v -2 14 7
v 5 14 7
v 6 14 7
v -3 14 -12
v -2 14 -12
v 5 14 -12
v 6 14 -12
v -3 14 -13
v -2 14 -13
v 5 14 -13
v 6 14 -13
v -2 15 8
v -1 15 8
v 4 15 8
v 5 15 8
v -2 15 7
v -1 15 7
v 4 15 7
v 5 15 7
v -2 15 -12
v -1 15 -12
v 4 15 -12
v 5 15 -12
v -2 15 -13
v -1 15 -13
v 4 15 -13
v 5 15 -13
v -1 16 8
v 0 16 8
v 3 16 8
v 4 16 8
v -1 16 7
v 0 16 7
v 3 16 7
v 4 16 7
v -1 16 -12
v 0 16 -12
v 3 16 -12
v 4 16 -12
v -1 16 -13
v 0 16 -13
v 3 16 -13
v 4 16 -13
v 0 17 8
v 1 17 8
v 2 17 8
v 3 17 8
v 0 17 7
v 1 17 7
v 2 17 7
v 3 17 7
v 0 17 -12
v 1 17 -12
v 2 17 -12
v 3 17 -12
v 0 17 -13
v 1 17 -13
v 2 17 -13
v 3 17 -13
v 1 18 8
v 2 18 8
v 1 18 7
v 2 18 7
v 1 18 -12
v 2 18 -12
v 1 18 -13
v 2 18 -13
v 7 4 1
v 8 4 1
v 7 4 -8
v 8 4 -8
v 3 5 7
v 6 5 7
v 3 5 6
v 6 5 6
v -6 12 8
v -5 12 8
v 8 12 8
v 9 12 8
v -6 12 -13
v -5 12 -13
v 8 12 -13
v 9 12 -13
v -5 13 8
v -4 13 8
v 7 13 8
v 8 13 8
v -5 13 -13
v -4 13 -13
v 7 13 -13
v 8 13 -13
v -4 14 8
v -3 14 8
v 6 14 8
v 7 14 8
v -4 14 -13
v -3 14 -13
v 6 14 -13
v 7 14 -13
v -3 15 8
v -2 15 8
v 5 15 8
v 6 15 8
v -3 15 -13
v -2 15 -13
v 5 15 -13
v 6 15 -13
v -2 16 8
v -1 16 8
v 4 16 8
v 5 16 8
v -2 16 -13
v -1 16 -13
v 4 16 -13
v 5 16 -13
v -1 17 8
v 0 17 8
v 3 17 8
v 4 17 8
v -1 17 -13
v 0 17 -13
v 3 17 -13
v 4 17 -13
v 0 18 8
v 1 18 8
v 2 18 8
v 3 18 8
v 0 18 -13
v 1 18 -13
v 2 18 -13
v 3 18 -13
v 1 19 8
v 2 19 8
v 1 19 -13
v 2 19 -13

# faces
f 3/2/1 2/2/1 1/2/1
f 4/2/1 2/2/1 3/2/1
f 7/3/1 6/3/1 5/3/1
f 8/3/1 6/3/1 7/3/1
f 11/2/1 10/2/1 9/2/1
f 12/2/1 10/2/1 11/2/1
f 15/2/1 14/2/1 13/2/1
f 16/2/1 14/2/1 15/2/1
f 19/2/1 18/2/1 17/2/1
f 20/2/1 18/2/1 19/2/1
f 23/2/1 22/2/1 21/2/1
f 24/2/1 22/2/1 23/2/1
f 27/2/1 26/2/1 25/2/1
f 28/2/1 26/2/1 27/2/1
f 31/2/1 30/2/1 29/2/1
f 32/2/1 30/2/1 31/2/1
f 35/3/1 34/3/1 33/3/1
f 36/3/1 34/3/1 35/3/1
f 39/2/1 38/2/1 37/2/1
f 40/2/1 38/2/1 39/2/1
f 45/2/1 42/2/1 41/2/1
f 46/2/1 42/2/1 45/2/1
f 47/2/1 44/2/1 43/2/1
f 48/2/1 44/2/1 47/2/1
f 53/2/1 50/2/1 49/2/1
f 54/2/1 50/2/1 53/2/1
f 55/2/1 52/2/1 51/2/1
f 56/2/1 52/2/1 55/2/1
f 61/2/1 58/2/1 57/2/1
f 62/2/1 58/2/1 61/2/1
f 63/2/1 60/2/1 59/2/1
f 64/2/1 60/2/1 63/2/1
f 69/2/1 66/2/1 65/2/1
f 70/2/1 66/2/1 69/2/1
f 71/2/1 68/2/1 67/2/1
f 72/2/1 68/2/1 71/2/1
f 75/3/1 74/3/1 73/3/1
f 76/3/1 74/3/1 75/3/1
f 81/2/1 78/2/1 77/2/1
f 82/2/1 78/2/1 81/2/1
f 83/2/1 80/2/1 79/2/1
f 84/2/1 80/2/1 83/2/1
f 89/2/1 86/2/1 85/2/1
f 90/2/1 86/2/1 89/2/1
f 91/2/1 88/2/1 87/2/1
f 92/2/1 88/2/1 91/2/1
f 97/2/1 94/2/1 93/2/1
f 98/2/1 94/2/1 97/2/1
f 99/2/1 96/2/1 95/2/1
f 100/2/1 96/2/1 99/2/1
f 101/2/2 102/2/2 105/2/2
f 105/2/2 102/2/2 106/2/2
f 103/2/2 104/2/2 107/2/2
f 107/2/2 104/2/2 108/2/2
f 109/2/2 110/2/2 113/2/2
f 113/2/2 110/2/2 114/2/2
f 111/2/2 112/2/2 115/2/2
f 115/2/2 112/2/2 116/2/2
f 117/3/2 118/3/2 119/3/2
f 119/3/2 118/3/2 120/3/2
f 121/2/2 122/2/2 125/2/2
f 125/2/2 122/2/2 126/2/2
f 123/2/2 124/2/2 127/2/2
f 127/2/2 124/2/2 128/2/2
f 129/2/2 130/2/2 133/2/2
f 133/2/2 130/2/2 134/2/2
f 131/2/2 132/2/2 135/2/2
f 135/2/2 132/2/2 136/2/2
f 137/2/2 138/2/2 141/2/2
f 141/2/2 138/2/2 142/2/2
f 139/2/2 140/2/2 143/2/2
f 143/2/2 140/2/2 144/2/2
f 145/2/2 146/2/2 149/2/2
f 149/2/2 146/2/2 150/2/2
f 147/2/2 148/2/2 151/2/2
f 151/2/2 148/2/2 152/2/2
f 153/2/2 154/2/2 157/2/2
f 157/2/2 154/2/2 158/2/2
f 155/2/2 156/2/2 159/2/2
f 159/2/2 156/2/2 160/2/2
f 161/2/2 162/2/2 163/2/2
f 163/2/2 162/2/2 164/2/2
f 165/3/2 166/3/2 167/3/2
f 167/3/2 166/3/2 168/3/2
f 169/2/2 170/2/2 171/2/2
f 171/2/2 170/2/2 172/2/2
f 173/2/2 174/2/2 175/2/2
f 175/2/2 174/2/2 176/2/2
f 177/2/2 178/2/2 179/2/2
f 179/2/2 178/2/2 180/2/2
f 181/2/2 182/2/2 183/2/2
f 183/2/2 182/2/2 184/2/2
f 185/4/2 186/4/2 187/4/2
f 187/4/2 186/4/2 188/4/2
f 189/2/2 190/2/2 191/2/2
f 191/2/2 190/2/2 192/2/2
f 193/3/2 194/3/2 195/3/2
f 195/3/2 194/3/2 196/3/2
f 193/3/2 195/3/2 197/3/2
f 196/3/2 194/3/2 198/3/2
f 193/3/2 197/3/2 199/3/2
f 197/3/2 198/3/2 199/3/2
f 198/3/2 194/3/2 200/3/2
f 199/3/2 198/3/2 200/3/2
f 201/2/2 202/2/2 203/2/2
f 203/2/2 202/2/2 204/2/2
f 205/2/2 206/2/2 207/2/2
f 207/2/2 206/2/2 208/2/2
f 211/2/3 210/2/3 209/2/3
f 212/2/3 210/2/3 211/2/3
f 214/2/3 213/2/3 212/2/3
f 215/2/3 213/2/3 214/2/3
f 217/2/3 216/2/3 215/2/3
f 218/2/3 216/2/3 217/2/3
f 220/2/3 219/2/3 218/2/3
f 221/2/3 219/2/3 220/2/3
f 223/2/3 222/2/3 221/2/3
f 224/2/3 222/2/3 223/2/3
f 226/2/3 225/2/3 224/2/3
f 227/2/3 225/2/3 226/2/3
f 229/2/3 228/2/3 227/2/3
f 230/2/3 228/2/3 229/2/3
f 233/2/3 231/2/3 230/2/3
f 234/2/3 231/2/3 233/2/3
f 236/2/3 233/2/3 232/2/3
f 237/2/3 233/2/3 236/2/3
f 239/2/3 236/2/3 235/2/3
f 240/2/3 236/2/3 239/2/3
f 242/2/3 239/2/3 238/2/3
f 243/2/3 239/2/3 242/2/3
f 245/2/3 242/2/3 241/2/3
f 246/2/3 242/2/3 245/2/3
f 248/2/3 245/2/3 244/2/3
f 249/2/3 245/2/3 248/2/3
f 251/2/3 248/2/3 247/2/3
f 252/2/3 248/2/3 251/2/3
f 253/2/3 251/2/3 250/2/3
f 254/2/3 251/2/3 253/2/3
f 258/3/3 256/3/3 255/3/3
f 258/3/3 257/3/3 256/3/3
f 260/3/3 258/3/3 255/3/3
f 260/3/3 259/3/3 258/3/3
f 261/3/3 259/3/3 260/3/3
f 262/3/3 259/3/3 261/3/3
f 264/3/3 263/3/3 262/3/3
f 264/3/3 262/3/3 261/3/3
f 266/3/3 265/3/3 264/3/3
f 268/3/3 267/3/3 266/3/3
f 271/3/3 264/3/3 261/3/3
f 271/3/3 269/3/3 268/3/3
f 271/3/3 268/3/3 266/3/3
f 271/3/3 266/3/3 264/3/3
f 272/3/3 269/3/3 271/3/3
f 274/3/3 271/3/3 270/3/3
f 274/3/3 273/3/3 272/3/3
f 274/3/3 272/3/3 271/3/3
f 275/3/3 273/3/3 274/3/3
f 276/3/3 274/3/3 270/3/3
f 277/3/3 274/3/3 276/3/3
f 278/3/3 274/3/3 277/3/3
f 279/3/3 274/3/3 278/3/3
f 280/3/3 278/3/3 277/3/3
f 281/3/3 278/3/3 280/3/3
f 282/3/3 280/3/3 277/3/3
f 283/3/3 280/3/3 282/3/3
f 284/3/3 276/3/3 270/3/3
f 285/3/3 282/3/3 277/3/3
f 286/3/3 282/3/3 285/3/3
f 287/3/3 282/3/3 286/3/3
f 288/3/3 285/3/3 284/3/3
f 288/3/3 286/3/3 285/3/3
f 289/3/3 286/3/3 288/3/3
f 290/3/3 284/3/3 270/3/3
f 290/3/3 288/3/3 284/3/3
f 291/3/3 288/3/3 290/3/3
f 292/3/3 288/3/3 291/3/3
f 295/1/3 294/1/3 293/1/3
f 296/1/3 294/1/3 295/1/3
f 299/4/3 298/4/3 297/4/3
f 300/4/3 298/4/3 299/4/3
f 303/3/3 302/3/3 301/3/3
f 304/3/3 302/3/3 303/3/3
f 305/3/4 306/3/4 307/3/4
f 307/3/4 306/3/4 308/3/4
f 309/3/4 310/3/4 312/3/4
f 310/3/4 311/3/4 312/3/4
f 312/3/4 313/3/4 314/3/4
f 314/3/4 315/3/4 316/3/4
f 316/3/4 317/3/4 318/3/4
f 318/3/4 319/3/4 320/3/4
f 320/3/4 321/3/4 322/3/4
f 320/3/4 322/3/4 324/3/4
f 322/3/4 323/3/4 324/3/4
f 324/3/4 323/3/4 325/3/4
f 318/3/4 320/3/4 326/3/4
f 320/3/4 324/3/4 326/3/4
f 326/3/4 324/3/4 327/3/4
f 316/3/4 318/3/4 328/3/4
f 318/3/4 326/3/4 328/3/4
f 328/3/4 326/3/4 329/3/4
f 314/3/4 316/3/4 330/3/4
f 316/3/4 328/3/4 330/3/4
f 330/3/4 328/3/4 331/3/4
f 312/3/4 314/3/4 332/3/4
f 314/3/4 330/3/4 332/3/4
f 332/3/4 330/3/4 333/3/4
f 309/3/4 312/3/4 334/3/4
f 312/3/4 332/3/4 334/3/4
f 334/3/4 332/3/4 335/3/4
f 309/3/4 334/3/4 336/3/4
f 336/3/4 334/3/4 337/3/4
f 337/3/4 334/3/4 338/3/4
f 339/2/4 340/2/4 341/2/4
f 341/2/4 340/2/4 342/2/4
f 342/2/4 343/2/4 344/2/4
f 344/2/4 343/2/4 345/2/4
f 345/2/4 346/2/4 347/2/4
f 347/2/4 346/2/4 348/2/4
f 348/2/4 349/2/4 350/2/4
f 350/2/4 349/2/4 351/2/4
f 351/2/4 352/2/4 353/2/4
f 353/2/4 352/2/4 354/2/4
f 354/2/4 355/2/4 356/2/4
f 356/2/4 355/2/4 357/2/4
f 357/2/4 358/2/4 359/2/4
f 359/2/4 358/2/4 360/2/4
f 360/2/4 361/2/4 363/2/4
f 363/2/4 361/2/4 364/2/4
f 362/2/4 363/2/4 366/2/4
f 366/2/4 363/2/4 367/2/4
f 365/2/4 366/2/4 369/2/4
f 369/2/4 366/2/4 370/2/4
f 368/2/4 369/2/4 372/2/4
f 372/2/4 369/2/4 373/2/4
f 371/2/4 372/2/4 375/2/4
f 375/2/4 372/2/4 376/2/4
f 374/2/4 375/2/4 378/2/4
f 378/2/4 375/2/4 379/2/4
f 377/2/4 378/2/4 381/2/4
f 381/2/4 378/2/4 382/2/4
f 380/2/4 381/2/4 383/2/4
f 383/2/4 381/2/4 384/2/4
f 389/3/5 386/3/5 385/3/5
f 390/3/5 388/3/5 387/3/5
f 391/3/5 389/3/5 385/3/5
f 391/1/5 390/1/5 389/1/5
f 392/3/5 388/3/5 390/3/5
f 392/1/5 390/1/5 391/1/5
f 393/3/5 391/3/5 385/3/5
f 393/3/5 392/3/5 391/3/5
f 394/3/5 388/3/5 392/3/5
f 394/3/5 392/3/5 393/3/5
f 397/3/5 396/3/5 395/3/5
f 398/3/5 396/3/5 397/3/5
f 401/3/5 400/3/5 399/3/5
f 402/3/5 400/3/5 401/3/5
f 405/3/5 404/3/5 403/3/5
f 406/3/5 404/3/5 405/3/5
f 411/2/5 408/2/5 407/2/5
f 412/2/5 410/2/5 409/2/5
f 413/2/5 411/2/5 407/2/5
f 414/2/5 410/2/5 412/2/5
f 415/2/5 413/2/5 407/2/5
f 416/2/5 413/2/5 415/2/5
f 417/2/5 410/2/5 414/2/5
f 418/2/5 410/2/5 417/2/5
f 423/2/5 420/2/5 419/2/5
f 424/2/5 420/2/5 423/2/5
f 425/2/5 422/2/5 421/2/5
f 426/2/5 422/2/5 425/2/5
f 431/2/5 428/2/5 427/2/5
f 432/2/5 428/2/5 431/2/5
f 433/2/5 430/2/5 429/2/5
f 434/2/5 430/2/5 433/2/5
f 439/2/5 436/2/5 435/2/5
f 440/2/5 436/2/5 439/2/5
f 441/2/5 438/2/5 437/2/5
f 442/2/5 438/2/5 441/2/5
f 447/2/5 444/2/5 443/2/5
f 448/2/5 444/2/5 447/2/5
f 449/2/5 446/2/5 445/2/5
f 450/2/5 446/2/5 449/2/5
f 455/2/5 452/2/5 451/2/5
f 456/2/5 452/2/5 455/2/5
f 457/2/5 454/2/5 453/2/5
f 458/2/5 454/2/5 457/2/5
f 463/2/5 460/2/5 459/2/5
f 464/2/5 460/2/5 463/2/5
f 465/2/5 462/2/5 461/2/5
f 466/2/5 462/2/5 465/2/5
f 471/2/5 468/2/5 467/2/5
f 472/2/5 468/2/5 471/2/5
f 473/2/5 470/2/5 469/2/5
f 474/2/5 470/2/5 473/2/5
f 479/2/5 476/2/5 475/2/5
f 480/2/5 476/2/5 479/2/5
f 481/2/5 478/2/5 477/2/5
f 482/2/5 478/2/5 481/2/5
f 487/2/5 484/2/5 483/2/5
f 488/2/5 484/2/5 487/2/5
f 489/2/5 486/2/5 485/2/5
f 490/2/5 486/2/5 489/2/5
f 495/2/5 492/2/5 491/2/5
f 496/2/5 492/2/5 495/2/5
f 497/2/5 494/2/5 493/2/5
f 498/2/5 494/2/5 497/2/5
f 503/2/5 500/2/5 499/2/5
f 504/2/5 500/2/5 503/2/5
f 505/2/5 502/2/5 501/2/5
f 506/2/5 502/2/5 505/2/5
f 511/2/5 508/2/5 507/2/5
f 512/2/5 508/2/5 511/2/5
f 513/2/5 510/2/5 509/2/5
f 514/2/5 510/2/5 513/2/5
f 517/2/5 516/2/5 515/2/5
f 518/2/5 516/2/5 517/2/5
f 521/2/5 520/2/5 519/2/5
f 522/2/5 520/2/5 521/2/5
f 523/3/6 524/3/6 525/3/6
f 525/3/6 524/3/6 526/3/6
f 527/3/6 528/3/6 529/3/6
f 529/3/6 528/3/6 530/3/6
f 531/2/6 532/2/6 535/2/6
f 535/2/6 532/2/6 536/2/6
f 533/2/6 534/2/6 537/2/6
f 537/2/6 534/2/6 538/2/6
f 539/2/6 540/2/6 543/2/6
f 543/2/6 540/2/6 544/2/6
f 541/2/6 542/2/6 545/2/6
f 545/2/6 542/2/6 546/2/6
f 547/2/6 548/2/6 551/2/6
f 551/2/6 548/2/6 552/2/6
f 549/2/6 550/2/6 553/2/6
f 553/2/6 550/2/6 554/2/6
f 555/2/6 556/2/6 559/2/6
f 559/2/6 556/2/6 560/2/6
f 557/2/6 558/2/6 561/2/6
f 561/2/6 558/2/6 562/2/6
f 563/2/6 564/2/6 567/2/6
f 567/2/6 564/2/6 568/2/6
f 565/2/6 566/2/6 569/2/6
f 569/2/6 566/2/6 570/2/6
f 571/2/6 572/2/6 575/2/6
f 575/2/6 572/2/6 576/2/6
f 573/2/6 574/2/6 577/2/6
f 577/2/6 574/2/6 578/2/6
f 579/2/6 580/2/6 583/2/6
f 583/2/6 580/2/6 584/2/6
f 581/2/6 582/2/6 585/2/6
f 585/2/6 582/2/6 586/2/6
f 587/2/6 588/2/6 589/2/6
f 589/2/6 588/2/6 590/2/6
