# MagicaVoxel @ Ephtracy

# group
g ConstrucTile

# material
mtllib ConstrucTile.mtl
usemtl palette

# normals
vn -1 0 0
vn 1 0 0
vn 0 0 1
vn 0 0 -1
vn 0 -1 0
vn 0 1 0

# texcoords
vt 0.00195313 0.5
vt 0.162109 0.5
vt 0.373047 0.5
vt 0.748047 0.5
vt 0.970703 0.5
vt 0.986328 0.5

# verts
v -22.5 9 3.5
v -22.5 9 -6.5
v -22.5 14 3.5
v -22.5 14 -6.5
v -22.5 18 -3.5
v -22.5 18 -12.5
v -22.5 23 -12.5
v -22.5 23 -13.5
v -22.5 28 -3.5
v -22.5 28 -13.5
v -22.5 40 19.5
v -22.5 40 -20.5
v -22.5 41 19.5
v -22.5 41 -20.5
v -19.5 0 19.5
v -19.5 0 -20.5
v -19.5 9 3.5
v -19.5 9 -6.5
v -19.5 12 19.5
v -19.5 12 3.5
v -19.5 12 -6.5
v -19.5 12 -20.5
v -19.5 14 3.5
v -19.5 14 -6.5
v -19.5 18 -3.5
v -19.5 18 -12.5
v -19.5 22 19.5
v -19.5 22 -3.5
v -19.5 22 -12.5
v -19.5 22 -20.5
v -19.5 23 -12.5
v -19.5 23 -13.5
v -19.5 28 -3.5
v -19.5 28 -13.5
v -19.5 29 19.5
v -19.5 29 -20.5
v -19.5 40 19.5
v -19.5 40 17.5
v -19.5 40 15.5
v -19.5 40 12.5
v -19.5 40 8.5
v -19.5 40 6.5
v -19.5 40 2.5
v -19.5 40 0.5
v -19.5 40 -3.5
v -19.5 40 -5.5
v -19.5 40 -9.5
v -19.5 40 -11.5
v -19.5 40 -15.5
v -19.5 40 -16.5
v -19.5 40 -18.5
v -19.5 40 -20.5
v -9.5 12 -20.5
v -9.5 12 -22.5
v -9.5 17 -20.5
v -9.5 17 -22.5
v -4.5 17 -20.5
v -4.5 17 -22.5
v -4.5 22 -20.5
v -4.5 26 -20.5
v -4.5 26 -22.5
v 10.5 11 -20.5
v 10.5 11 -22.5
v 10.5 12 -20.5
v 10.5 16 -20.5
v 10.5 16 -22.5
v 17.5 40 14.5
v 17.5 40 -15.5
v 17.5 41 14.5
v 17.5 41 -15.5
v -17.5 40 14.5
v -17.5 40 -15.5
v -17.5 41 14.5
v -17.5 41 -15.5
v -4.5 12 -20.5
v -4.5 12 -22.5
v -4.5 17 -20.5
v -4.5 17 -22.5
v 4.5 17 -20.5
v 4.5 17 -22.5
v 4.5 22 -20.5
v 4.5 26 -20.5
v 4.5 26 -22.5
v 15.5 11 -20.5
v 15.5 11 -22.5
v 15.5 12 -20.5
v 15.5 16 -20.5
v 15.5 16 -22.5
v 20.5 0 19.5
v 20.5 0 -20.5
v 20.5 9 3.5
v 20.5 9 -6.5
v 20.5 12 19.5
v 20.5 12 3.5
v 20.5 12 -6.5
v 20.5 12 -20.5
v 20.5 14 3.5
v 20.5 14 -6.5
v 20.5 18 -3.5
v 20.5 18 -12.5
v 20.5 22 19.5
v 20.5 22 -3.5
v 20.5 22 -12.5
v 20.5 22 -20.5
v 20.5 23 -12.5
v 20.5 23 -13.5
v 20.5 28 -3.5
v 20.5 28 -13.5
v 20.5 29 19.5
v 20.5 29 -20.5
v 20.5 40 19.5
v 20.5 40 -20.5
v 22.5 9 3.5
v 22.5 9 -6.5
v 22.5 14 3.5
v 22.5 14 -6.5
v 22.5 18 -3.5
v 22.5 18 -12.5
v 22.5 23 -12.5
v 22.5 23 -13.5
v 22.5 28 -3.5
v 22.5 28 -13.5
v 22.5 40 19.5
v 22.5 40 -20.5
v 22.5 41 19.5
v 22.5 41 -20.5
v -22.5 40 19.5
v -22.5 41 19.5
v -19.5 0 19.5
v -19.5 12 19.5
v -19.5 22 19.5
v -19.5 29 19.5
v -19.5 40 19.5
v 20.5 0 19.5
v 20.5 12 19.5
v 20.5 22 19.5
v 20.5 29 19.5
v 20.5 40 19.5
v 22.5 40 19.5
v 22.5 41 19.5
v -22.5 9 3.5
v -22.5 14 3.5
v -19.5 9 3.5
v -19.5 12 3.5
v -19.5 14 3.5
v 20.5 9 3.5
v 20.5 12 3.5
v 20.5 14 3.5
v 22.5 9 3.5
v 22.5 14 3.5
v -22.5 18 -3.5
v -22.5 28 -3.5
v -19.5 18 -3.5
v -19.5 22 -3.5
v -19.5 28 -3.5
v 20.5 18 -3.5
v 20.5 22 -3.5
v 20.5 28 -3.5
v 22.5 18 -3.5
v 22.5 28 -3.5
v -17.5 40 -15.5
v -17.5 41 -15.5
v 17.5 40 -15.5
v 17.5 41 -15.5
v -17.5 40 14.5
v -17.5 41 14.5
v 17.5 40 14.5
v 17.5 41 14.5
v -22.5 9 -6.5
v -22.5 14 -6.5
v -19.5 9 -6.5
v -19.5 12 -6.5
v -19.5 14 -6.5
v 20.5 9 -6.5
v 20.5 12 -6.5
v 20.5 14 -6.5
v 22.5 9 -6.5
v 22.5 14 -6.5
v -22.5 18 -12.5
v -22.5 23 -12.5
v -19.5 18 -12.5
v -19.5 22 -12.5
v -19.5 23 -12.5
v 20.5 18 -12.5
v 20.5 22 -12.5
v 20.5 23 -12.5
v 22.5 18 -12.5
v 22.5 23 -12.5
v -22.5 23 -13.5
v -22.5 28 -13.5
v -19.5 23 -13.5
v -19.5 28 -13.5
v 20.5 23 -13.5
v 20.5 28 -13.5
v 22.5 23 -13.5
v 22.5 28 -13.5
v -22.5 40 -20.5
v -22.5 41 -20.5
v -19.5 0 -20.5
v -19.5 12 -20.5
v -19.5 22 -20.5
v -19.5 29 -20.5
v -19.5 40 -20.5
v -9.5 12 -20.5
v -9.5 17 -20.5
v -4.5 12 -20.5
v -4.5 17 -20.5
v -4.5 22 -20.5
v -4.5 26 -20.5
v 4.5 17 -20.5
v 4.5 22 -20.5
v 4.5 26 -20.5
v 10.5 11 -20.5
v 10.5 12 -20.5
v 10.5 16 -20.5
v 15.5 11 -20.5
v 15.5 12 -20.5
v 15.5 16 -20.5
v 20.5 0 -20.5
v 20.5 12 -20.5
v 20.5 22 -20.5
v 20.5 29 -20.5
v 20.5 40 -20.5
v 22.5 40 -20.5
v 22.5 41 -20.5
v -9.5 12 -22.5
v -9.5 17 -22.5
v -4.5 12 -22.5
v -4.5 17 -22.5
v -4.5 26 -22.5
v 4.5 17 -22.5
v 4.5 26 -22.5
v 10.5 11 -22.5
v 10.5 16 -22.5
v 15.5 11 -22.5
v 15.5 16 -22.5
v -19.5 0 19.5
v 20.5 0 19.5
v -19.5 0 -20.5
v 20.5 0 -20.5
v -22.5 9 3.5
v -19.5 9 3.5
v 20.5 9 3.5
v 22.5 9 3.5
v -22.5 9 -6.5
v -19.5 9 -6.5
v 20.5 9 -6.5
v 22.5 9 -6.5
v 10.5 11 -20.5
v 15.5 11 -20.5
v 10.5 11 -22.5
v 15.5 11 -22.5
v -9.5 12 -20.5
v -4.5 12 -20.5
v -9.5 12 -22.5
v -4.5 12 -22.5
v -4.5 17 -20.5
v 4.5 17 -20.5
v -4.5 17 -22.5
v 4.5 17 -22.5
v -22.5 18 -3.5
v -19.5 18 -3.5
v 20.5 18 -3.5
v 22.5 18 -3.5
v -22.5 18 -12.5
v -19.5 18 -12.5
v 20.5 18 -12.5
v 22.5 18 -12.5
v -22.5 23 -12.5
v -19.5 23 -12.5
v 20.5 23 -12.5
v 22.5 23 -12.5
v -22.5 23 -13.5
v -19.5 23 -13.5
v 20.5 23 -13.5
v 22.5 23 -13.5
v -22.5 40 19.5
v -19.5 40 19.5
v 20.5 40 19.5
v 22.5 40 19.5
v -20.5 40 17.5
v -19.5 40 17.5
v -20.5 40 15.5
v -19.5 40 15.5
v -20.5 40 12.5
v -19.5 40 12.5
v -20.5 40 8.5
v -19.5 40 8.5
v -20.5 40 6.5
v -19.5 40 6.5
v -20.5 40 2.5
v -19.5 40 2.5
v -20.5 40 0.5
v -19.5 40 0.5
v -20.5 40 -3.5
v -19.5 40 -3.5
v -20.5 40 -5.5
v -19.5 40 -5.5
v -20.5 40 -9.5
v -19.5 40 -9.5
v -20.5 40 -11.5
v -19.5 40 -11.5
v -20.5 40 -15.5
v -19.5 40 -15.5
v -20.5 40 -16.5
v -19.5 40 -16.5
v -20.5 40 -18.5
v -19.5 40 -18.5
v -22.5 40 -20.5
v -19.5 40 -20.5
v 20.5 40 -20.5
v 22.5 40 -20.5
v -22.5 14 3.5
v -19.5 14 3.5
v 20.5 14 3.5
v 22.5 14 3.5
v -22.5 14 -6.5
v -19.5 14 -6.5
v 20.5 14 -6.5
v 22.5 14 -6.5
v 10.5 16 -20.5
v 15.5 16 -20.5
v 10.5 16 -22.5
v 15.5 16 -22.5
v -9.5 17 -20.5
v -4.5 17 -20.5
v -9.5 17 -22.5
v -4.5 17 -22.5
v -4.5 26 -20.5
v 4.5 26 -20.5
v -4.5 26 -22.5
v 4.5 26 -22.5
v -22.5 28 -3.5
v -19.5 28 -3.5
v 20.5 28 -3.5
v 22.5 28 -3.5
v -22.5 28 -13.5
v -19.5 28 -13.5
v 20.5 28 -13.5
v 22.5 28 -13.5
v -17.5 40 14.5
v 17.5 40 14.5
v -17.5 40 -15.5
v 17.5 40 -15.5
v -22.5 41 19.5
v 22.5 41 19.5
v -20.5 41 17.5
v -17.5 41 17.5
v -15.5 41 17.5
v -9.5 41 17.5
v -7.5 41 17.5
v -3.5 41 17.5
v -1.5 41 17.5
v 1.5 41 17.5
v 3.5 41 17.5
v 7.5 41 17.5
v 9.5 41 17.5
v 13.5 41 17.5
v 16.5 41 17.5
v 20.5 41 17.5
v -19.5 41 16.5
v -17.5 41 16.5
v -15.5 41 16.5
v -9.5 41 16.5
v -7.5 41 16.5
v -3.5 41 16.5
v -1.5 41 16.5
v 1.5 41 16.5
v 3.5 41 16.5
v 7.5 41 16.5
v 9.5 41 16.5
v 13.5 41 16.5
v 16.5 41 16.5
v 19.5 41 16.5
v -20.5 41 15.5
v -19.5 41 15.5
v -17.5 41 14.5
v 17.5 41 14.5
v 19.5 41 14.5
v 20.5 41 14.5
v 19.5 41 13.5
v 20.5 41 13.5
v -20.5 41 12.5
v -19.5 41 12.5
v 19.5 41 9.5
v 20.5 41 9.5
v -20.5 41 8.5
v -19.5 41 8.5
v 19.5 41 7.5
v 20.5 41 7.5
v -20.5 41 6.5
v -19.5 41 6.5
v 19.5 41 3.5
v 20.5 41 3.5
v -20.5 41 2.5
v -19.5 41 2.5
v 19.5 41 1.5
v 20.5 41 1.5
v -20.5 41 0.5
v -19.5 41 0.5
v 19.5 41 -2.5
v 20.5 41 -2.5
v -20.5 41 -3.5
v -19.5 41 -3.5
v 19.5 41 -4.5
v 20.5 41 -4.5
v -20.5 41 -5.5
v -19.5 41 -5.5
v 19.5 41 -8.5
v 20.5 41 -8.5
v -20.5 41 -9.5
v -19.5 41 -9.5
v 19.5 41 -10.5
v 20.5 41 -10.5
v -20.5 41 -11.5
v -19.5 41 -11.5
v 19.5 41 -14.5
v 20.5 41 -14.5
v -20.5 41 -15.5
v -19.5 41 -15.5
v -17.5 41 -15.5
v 17.5 41 -15.5
v 19.5 41 -15.5
v 20.5 41 -15.5
v -20.5 41 -16.5
v -19.5 41 -16.5
v -19.5 41 -17.5
v -17.5 41 -17.5
v -15.5 41 -17.5
v -11.5 41 -17.5
v -9.5 41 -17.5
v -5.5 41 -17.5
v -3.5 41 -17.5
v 0.5 41 -17.5
v 2.5 41 -17.5
v 6.5 41 -17.5
v 8.5 41 -17.5
v 12.5 41 -17.5
v 16.5 41 -17.5
v 19.5 41 -17.5
v -20.5 41 -18.5
v -17.5 41 -18.5
v -15.5 41 -18.5
v -11.5 41 -18.5
v -9.5 41 -18.5
v -5.5 41 -18.5
v -3.5 41 -18.5
v 0.5 41 -18.5
v 2.5 41 -18.5
v 6.5 41 -18.5
v 8.5 41 -18.5
v 12.5 41 -18.5
v 16.5 41 -18.5
v 20.5 41 -18.5
v -22.5 41 -20.5
v 22.5 41 -20.5

# faces
f 3/1/1 2/1/1 1/1/1
f 4/1/1 2/1/1 3/1/1
f 7/1/1 6/1/1 5/1/1
f 9/1/1 7/1/1 5/1/1
f 9/1/1 8/1/1 7/1/1
f 10/1/1 8/1/1 9/1/1
f 13/6/1 12/6/1 11/6/1
f 14/6/1 12/6/1 13/6/1
f 17/5/1 16/5/1 15/5/1
f 18/5/1 16/5/1 17/5/1
f 19/5/1 17/5/1 15/5/1
f 20/5/1 17/5/1 19/5/1
f 21/5/1 16/5/1 18/5/1
f 22/5/1 16/5/1 21/5/1
f 23/1/1 20/1/1 19/1/1
f 24/1/1 22/1/1 21/1/1
f 25/1/1 24/1/1 23/1/1
f 26/1/1 22/1/1 24/1/1
f 26/1/1 24/1/1 25/1/1
f 27/1/1 23/1/1 19/1/1
f 27/1/1 25/1/1 23/1/1
f 28/1/1 25/1/1 27/1/1
f 29/1/1 22/1/1 26/1/1
f 30/1/1 22/1/1 29/1/1
f 31/3/1 30/3/1 29/3/1
f 32/3/1 30/3/1 31/3/1
f 33/3/1 28/3/1 27/3/1
f 34/3/1 30/3/1 32/3/1
f 35/3/1 33/3/1 27/3/1
f 35/3/1 34/3/1 33/3/1
f 36/3/1 30/3/1 34/3/1
f 36/3/1 34/3/1 35/3/1
f 37/4/1 36/4/1 35/4/1
f 38/4/1 36/4/1 37/4/1
f 39/4/1 36/4/1 38/4/1
f 40/4/1 36/4/1 39/4/1
f 41/4/1 36/4/1 40/4/1
f 42/4/1 36/4/1 41/4/1
f 43/4/1 36/4/1 42/4/1
f 44/4/1 36/4/1 43/4/1
f 45/4/1 36/4/1 44/4/1
f 46/4/1 36/4/1 45/4/1
f 47/4/1 36/4/1 46/4/1
f 48/4/1 36/4/1 47/4/1
f 49/4/1 36/4/1 48/4/1
f 50/4/1 36/4/1 49/4/1
f 51/4/1 36/4/1 50/4/1
f 52/4/1 36/4/1 51/4/1
f 55/1/1 54/1/1 53/1/1
f 56/1/1 54/1/1 55/1/1
f 59/1/1 58/1/1 57/1/1
f 60/1/1 58/1/1 59/1/1
f 61/1/1 58/1/1 60/1/1
f 64/1/1 63/1/1 62/1/1
f 65/1/1 63/1/1 64/1/1
f 66/1/1 63/1/1 65/1/1
f 69/6/1 68/6/1 67/6/1
f 70/6/1 68/6/1 69/6/1
f 71/6/2 72/6/2 73/6/2
f 73/6/2 72/6/2 74/6/2
f 75/1/2 76/1/2 77/1/2
f 77/1/2 76/1/2 78/1/2
f 79/1/2 80/1/2 81/1/2
f 81/1/2 80/1/2 82/1/2
f 82/1/2 80/1/2 83/1/2
f 84/1/2 85/1/2 86/1/2
f 86/1/2 85/1/2 87/1/2
f 87/1/2 85/1/2 88/1/2
f 89/5/2 90/5/2 91/5/2
f 91/5/2 90/5/2 92/5/2
f 89/5/2 91/5/2 93/5/2
f 93/5/2 91/5/2 94/5/2
f 92/5/2 90/5/2 95/5/2
f 95/5/2 90/5/2 96/5/2
f 93/1/2 94/1/2 97/1/2
f 95/1/2 96/1/2 98/1/2
f 97/1/2 98/1/2 99/1/2
f 98/1/2 96/1/2 100/1/2
f 99/1/2 98/1/2 100/1/2
f 93/1/2 97/1/2 101/1/2
f 97/1/2 99/1/2 101/1/2
f 101/1/2 99/1/2 102/1/2
f 100/1/2 96/1/2 103/1/2
f 103/1/2 96/1/2 104/1/2
f 103/3/2 104/3/2 105/3/2
f 105/3/2 104/3/2 106/3/2
f 101/3/2 102/3/2 107/3/2
f 106/3/2 104/3/2 108/3/2
f 101/3/2 107/3/2 109/3/2
f 107/3/2 108/3/2 109/3/2
f 108/3/2 104/3/2 110/3/2
f 109/3/2 108/3/2 110/3/2
f 109/4/2 110/4/2 111/4/2
f 111/4/2 110/4/2 112/4/2
f 113/1/2 114/1/2 115/1/2
f 115/1/2 114/1/2 116/1/2
f 117/1/2 118/1/2 119/1/2
f 117/1/2 119/1/2 121/1/2
f 119/1/2 120/1/2 121/1/2
f 121/1/2 120/1/2 122/1/2
f 123/6/2 124/6/2 125/6/2
f 125/6/2 124/6/2 126/6/2
f 133/6/3 128/6/3 127/6/3
f 134/5/3 130/5/3 129/5/3
f 135/1/3 131/1/3 130/1/3
f 135/5/3 130/5/3 134/5/3
f 136/3/3 132/3/3 131/3/3
f 136/1/3 131/1/3 135/1/3
f 137/4/3 133/4/3 132/4/3
f 137/3/3 132/3/3 136/3/3
f 138/6/3 128/6/3 133/6/3
f 138/4/3 133/4/3 137/4/3
f 139/6/3 128/6/3 138/6/3
f 140/6/3 128/6/3 139/6/3
f 143/1/3 142/1/3 141/1/3
f 144/1/3 142/1/3 143/1/3
f 145/1/3 142/1/3 144/1/3
f 149/1/3 147/1/3 146/1/3
f 149/1/3 148/1/3 147/1/3
f 150/1/3 148/1/3 149/1/3
f 153/1/3 152/1/3 151/1/3
f 154/1/3 152/1/3 153/1/3
f 155/1/3 152/1/3 154/1/3
f 159/1/3 157/1/3 156/1/3
f 159/1/3 158/1/3 157/1/3
f 160/1/3 158/1/3 159/1/3
f 163/6/3 162/6/3 161/6/3
f 164/6/3 162/6/3 163/6/3
f 165/6/4 166/6/4 167/6/4
f 167/6/4 166/6/4 168/6/4
f 169/1/4 170/1/4 171/1/4
f 171/1/4 170/1/4 172/1/4
f 172/1/4 170/1/4 173/1/4
f 174/1/4 175/1/4 177/1/4
f 175/1/4 176/1/4 177/1/4
f 177/1/4 176/1/4 178/1/4
f 179/1/4 180/1/4 181/1/4
f 181/1/4 180/1/4 182/1/4
f 182/1/4 180/1/4 183/1/4
f 184/1/4 185/1/4 187/1/4
f 185/1/4 186/1/4 187/1/4
f 187/1/4 186/1/4 188/1/4
f 189/1/4 190/1/4 191/1/4
f 191/1/4 190/1/4 192/1/4
f 193/1/4 194/1/4 195/1/4
f 195/1/4 194/1/4 196/1/4
f 197/6/4 198/6/4 203/6/4
f 199/5/4 200/5/4 204/5/4
f 200/1/4 201/1/4 204/1/4
f 204/1/4 201/1/4 205/1/4
f 199/5/4 204/5/4 206/5/4
f 205/1/4 201/1/4 207/1/4
f 201/3/4 202/3/4 208/3/4
f 207/1/4 201/1/4 208/1/4
f 208/3/4 202/3/4 209/3/4
f 206/1/4 207/1/4 210/1/4
f 209/3/4 202/3/4 212/3/4
f 199/5/4 206/5/4 213/5/4
f 210/1/4 211/1/4 214/1/4
f 213/5/4 206/5/4 214/5/4
f 206/1/4 210/1/4 214/1/4
f 214/1/4 211/1/4 215/1/4
f 199/5/4 213/5/4 216/5/4
f 215/1/4 211/1/4 218/1/4
f 216/5/4 217/5/4 219/5/4
f 199/5/4 216/5/4 219/5/4
f 217/1/4 218/1/4 220/1/4
f 219/5/4 217/5/4 220/5/4
f 211/3/4 212/3/4 221/3/4
f 220/1/4 218/1/4 221/1/4
f 218/1/4 211/1/4 221/1/4
f 202/4/4 203/4/4 222/4/4
f 221/3/4 212/3/4 222/3/4
f 212/3/4 202/3/4 222/3/4
f 203/6/4 198/6/4 223/6/4
f 222/4/4 203/4/4 223/4/4
f 223/6/4 198/6/4 224/6/4
f 224/6/4 198/6/4 225/6/4
f 226/1/4 227/1/4 228/1/4
f 228/1/4 227/1/4 229/1/4
f 229/1/4 230/1/4 231/1/4
f 231/1/4 230/1/4 232/1/4
f 233/1/4 234/1/4 235/1/4
f 235/1/4 234/1/4 236/1/4
f 239/5/5 238/5/5 237/5/5
f 240/5/5 238/5/5 239/5/5
f 245/1/5 242/1/5 241/1/5
f 246/1/5 242/1/5 245/1/5
f 247/1/5 244/1/5 243/1/5
f 248/1/5 244/1/5 247/1/5
f 251/1/5 250/1/5 249/1/5
f 252/1/5 250/1/5 251/1/5
f 255/1/5 254/1/5 253/1/5
f 256/1/5 254/1/5 255/1/5
f 259/1/5 258/1/5 257/1/5
f 260/1/5 258/1/5 259/1/5
f 265/1/5 262/1/5 261/1/5
f 266/1/5 262/1/5 265/1/5
f 267/1/5 264/1/5 263/1/5
f 268/1/5 264/1/5 267/1/5
f 273/1/5 270/1/5 269/1/5
f 274/1/5 270/1/5 273/1/5
f 275/1/5 272/1/5 271/1/5
f 276/1/5 272/1/5 275/1/5
f 281/6/5 278/6/5 277/6/5
f 282/6/5 278/6/5 281/6/5
f 283/6/5 281/6/5 277/6/5
f 283/2/5 282/2/5 281/2/5
f 284/2/5 282/2/5 283/2/5
f 285/6/5 283/6/5 277/6/5
f 285/6/5 284/6/5 283/6/5
f 286/6/5 284/6/5 285/6/5
f 287/6/5 285/6/5 277/6/5
f 287/2/5 286/2/5 285/2/5
f 288/2/5 286/2/5 287/2/5
f 289/6/5 287/6/5 277/6/5
f 289/6/5 288/6/5 287/6/5
f 290/6/5 288/6/5 289/6/5
f 291/6/5 289/6/5 277/6/5
f 291/2/5 290/2/5 289/2/5
f 292/2/5 290/2/5 291/2/5
f 293/6/5 291/6/5 277/6/5
f 293/6/5 292/6/5 291/6/5
f 294/6/5 292/6/5 293/6/5
f 295/6/5 293/6/5 277/6/5
f 295/2/5 294/2/5 293/2/5
f 296/2/5 294/2/5 295/2/5
f 297/6/5 295/6/5 277/6/5
f 297/6/5 296/6/5 295/6/5
f 298/6/5 296/6/5 297/6/5
f 299/6/5 297/6/5 277/6/5
f 299/2/5 298/2/5 297/2/5
f 300/2/5 298/2/5 299/2/5
f 301/6/5 299/6/5 277/6/5
f 301/6/5 300/6/5 299/6/5
f 302/6/5 300/6/5 301/6/5
f 303/6/5 301/6/5 277/6/5
f 303/2/5 302/2/5 301/2/5
f 304/2/5 302/2/5 303/2/5
f 305/6/5 303/6/5 277/6/5
f 305/6/5 304/6/5 303/6/5
f 306/6/5 304/6/5 305/6/5
f 307/6/5 305/6/5 277/6/5
f 307/2/5 306/2/5 305/2/5
f 308/2/5 306/2/5 307/2/5
f 309/6/5 307/6/5 277/6/5
f 309/6/5 308/6/5 307/6/5
f 310/6/5 308/6/5 309/6/5
f 311/6/5 280/6/5 279/6/5
f 312/6/5 280/6/5 311/6/5
f 313/1/6 314/1/6 317/1/6
f 317/1/6 314/1/6 318/1/6
f 315/1/6 316/1/6 319/1/6
f 319/1/6 316/1/6 320/1/6
f 321/1/6 322/1/6 323/1/6
f 323/1/6 322/1/6 324/1/6
f 325/1/6 326/1/6 327/1/6
f 327/1/6 326/1/6 328/1/6
f 329/1/6 330/1/6 331/1/6
f 331/1/6 330/1/6 332/1/6
f 333/1/6 334/1/6 337/1/6
f 337/1/6 334/1/6 338/1/6
f 335/1/6 336/1/6 339/1/6
f 339/1/6 336/1/6 340/1/6
f 341/4/6 342/4/6 343/4/6
f 343/4/6 342/4/6 344/4/6
f 345/6/6 346/6/6 347/6/6
f 347/6/6 346/6/6 348/6/6
f 348/6/6 346/6/6 349/6/6
f 349/6/6 346/6/6 350/6/6
f 350/6/6 346/6/6 351/6/6
f 351/6/6 346/6/6 352/6/6
f 352/6/6 346/6/6 353/6/6
f 353/6/6 346/6/6 354/6/6
f 354/6/6 346/6/6 355/6/6
f 355/6/6 346/6/6 356/6/6
f 356/6/6 346/6/6 357/6/6
f 357/6/6 346/6/6 358/6/6
f 358/6/6 346/6/6 359/6/6
f 359/6/6 346/6/6 360/6/6
f 347/2/6 348/2/6 361/2/6
f 348/6/6 349/6/6 362/6/6
f 361/2/6 348/2/6 362/2/6
f 349/2/6 350/2/6 363/2/6
f 362/6/6 349/6/6 363/6/6
f 350/6/6 351/6/6 364/6/6
f 363/2/6 350/2/6 364/2/6
f 351/2/6 352/2/6 365/2/6
f 364/6/6 351/6/6 365/6/6
f 352/6/6 353/6/6 366/6/6
f 365/2/6 352/2/6 366/2/6
f 353/2/6 354/2/6 367/2/6
f 366/6/6 353/6/6 367/6/6
f 354/6/6 355/6/6 368/6/6
f 367/2/6 354/2/6 368/2/6
f 355/2/6 356/2/6 369/2/6
f 368/6/6 355/6/6 369/6/6
f 356/6/6 357/6/6 370/6/6
f 369/2/6 356/2/6 370/2/6
f 357/2/6 358/2/6 371/2/6
f 370/6/6 357/6/6 371/6/6
f 358/6/6 359/6/6 372/6/6
f 371/2/6 358/2/6 372/2/6
f 359/2/6 360/2/6 373/2/6
f 372/6/6 359/6/6 373/6/6
f 373/2/6 360/2/6 374/2/6
f 345/6/6 347/6/6 375/6/6
f 347/2/6 361/2/6 375/2/6
f 373/6/6 374/6/6 376/6/6
f 375/2/6 361/2/6 376/2/6
f 361/6/6 362/6/6 376/6/6
f 372/6/6 373/6/6 376/6/6
f 371/6/6 372/6/6 376/6/6
f 370/6/6 371/6/6 376/6/6
f 369/6/6 370/6/6 376/6/6
f 368/6/6 369/6/6 376/6/6
f 367/6/6 368/6/6 376/6/6
f 366/6/6 367/6/6 376/6/6
f 365/6/6 366/6/6 376/6/6
f 364/6/6 365/6/6 376/6/6
f 363/6/6 364/6/6 376/6/6
f 362/6/6 363/6/6 376/6/6
f 375/6/6 376/6/6 377/6/6
f 376/6/6 374/6/6 377/6/6
f 377/6/6 374/6/6 378/6/6
f 374/2/6 360/2/6 379/2/6
f 378/6/6 374/6/6 379/6/6
f 360/6/6 346/6/6 380/6/6
f 379/2/6 360/2/6 380/2/6
f 378/6/6 379/6/6 381/6/6
f 379/6/6 380/6/6 381/6/6
f 380/6/6 346/6/6 382/6/6
f 381/6/6 380/6/6 382/6/6
f 375/6/6 377/6/6 383/6/6
f 345/6/6 375/6/6 383/6/6
f 383/6/6 377/6/6 384/6/6
f 378/6/6 381/6/6 385/6/6
f 381/2/6 382/2/6 385/2/6
f 382/6/6 346/6/6 386/6/6
f 385/2/6 382/2/6 386/2/6
f 383/2/6 384/2/6 387/2/6
f 345/6/6 383/6/6 387/6/6
f 384/6/6 377/6/6 388/6/6
f 387/2/6 384/2/6 388/2/6
f 378/6/6 385/6/6 389/6/6
f 385/6/6 386/6/6 389/6/6
f 386/6/6 346/6/6 390/6/6
f 389/6/6 386/6/6 390/6/6
f 345/6/6 387/6/6 391/6/6
f 387/6/6 388/6/6 391/6/6
f 388/6/6 377/6/6 392/6/6
f 391/6/6 388/6/6 392/6/6
f 378/6/6 389/6/6 393/6/6
f 389/2/6 390/2/6 393/2/6
f 390/6/6 346/6/6 394/6/6
f 393/2/6 390/2/6 394/2/6
f 345/6/6 391/6/6 395/6/6
f 391/2/6 392/2/6 395/2/6
f 392/6/6 377/6/6 396/6/6
f 395/2/6 392/2/6 396/2/6
f 378/6/6 393/6/6 397/6/6
f 393/6/6 394/6/6 397/6/6
f 394/6/6 346/6/6 398/6/6
f 397/6/6 394/6/6 398/6/6
f 345/6/6 395/6/6 399/6/6
f 395/6/6 396/6/6 399/6/6
f 396/6/6 377/6/6 400/6/6
f 399/6/6 396/6/6 400/6/6
f 378/6/6 397/6/6 401/6/6
f 397/2/6 398/2/6 401/2/6
f 398/6/6 346/6/6 402/6/6
f 401/2/6 398/2/6 402/2/6
f 345/6/6 399/6/6 403/6/6
f 399/2/6 400/2/6 403/2/6
f 400/6/6 377/6/6 404/6/6
f 403/2/6 400/2/6 404/2/6
f 378/6/6 401/6/6 405/6/6
f 401/6/6 402/6/6 405/6/6
f 402/6/6 346/6/6 406/6/6
f 405/6/6 402/6/6 406/6/6
f 345/6/6 403/6/6 407/6/6
f 403/6/6 404/6/6 407/6/6
f 404/6/6 377/6/6 408/6/6
f 407/6/6 404/6/6 408/6/6
f 378/6/6 405/6/6 409/6/6
f 405/2/6 406/2/6 409/2/6
f 406/6/6 346/6/6 410/6/6
f 409/2/6 406/2/6 410/2/6
f 345/6/6 407/6/6 411/6/6
f 407/2/6 408/2/6 411/2/6
f 408/6/6 377/6/6 412/6/6
f 411/2/6 408/2/6 412/2/6
f 378/6/6 409/6/6 413/6/6
f 409/6/6 410/6/6 413/6/6
f 410/6/6 346/6/6 414/6/6
f 413/6/6 410/6/6 414/6/6
f 345/6/6 411/6/6 415/6/6
f 411/6/6 412/6/6 415/6/6
f 412/6/6 377/6/6 416/6/6
f 415/6/6 412/6/6 416/6/6
f 378/6/6 413/6/6 417/6/6
f 413/2/6 414/2/6 417/2/6
f 414/6/6 346/6/6 418/6/6
f 417/2/6 414/2/6 418/2/6
f 345/6/6 415/6/6 419/6/6
f 415/2/6 416/2/6 419/2/6
f 416/6/6 377/6/6 420/6/6
f 419/2/6 416/2/6 420/2/6
f 420/6/6 377/6/6 421/6/6
f 378/6/6 417/6/6 422/6/6
f 417/6/6 418/6/6 422/6/6
f 422/6/6 418/6/6 423/6/6
f 418/6/6 346/6/6 424/6/6
f 423/6/6 418/6/6 424/6/6
f 420/6/6 421/6/6 425/6/6
f 422/6/6 423/6/6 425/6/6
f 345/6/6 419/6/6 425/6/6
f 421/6/6 422/6/6 425/6/6
f 419/6/6 420/6/6 425/6/6
f 425/6/6 423/6/6 426/6/6
f 425/2/6 426/2/6 427/2/6
f 426/6/6 423/6/6 427/6/6
f 427/6/6 423/6/6 428/6/6
f 428/6/6 423/6/6 429/6/6
f 429/6/6 423/6/6 430/6/6
f 430/6/6 423/6/6 431/6/6
f 431/6/6 423/6/6 432/6/6
f 432/6/6 423/6/6 433/6/6
f 433/6/6 423/6/6 434/6/6
f 434/6/6 423/6/6 435/6/6
f 435/6/6 423/6/6 436/6/6
f 436/6/6 423/6/6 437/6/6
f 437/6/6 423/6/6 438/6/6
f 438/6/6 423/6/6 439/6/6
f 423/2/6 424/2/6 440/2/6
f 439/6/6 423/6/6 440/6/6
f 345/6/6 425/6/6 441/6/6
f 425/2/6 427/2/6 441/2/6
f 427/2/6 428/2/6 441/2/6
f 428/6/6 429/6/6 442/6/6
f 441/2/6 428/2/6 442/2/6
f 429/2/6 430/2/6 443/2/6
f 442/6/6 429/6/6 443/6/6
f 430/6/6 431/6/6 444/6/6
f 443/2/6 430/2/6 444/2/6
f 431/2/6 432/2/6 445/2/6
f 444/6/6 431/6/6 445/6/6
f 432/6/6 433/6/6 446/6/6
f 445/2/6 432/2/6 446/2/6
f 433/2/6 434/2/6 447/2/6
f 446/6/6 433/6/6 447/6/6
f 434/6/6 435/6/6 448/6/6
f 447/2/6 434/2/6 448/2/6
f 435/2/6 436/2/6 449/2/6
f 448/6/6 435/6/6 449/6/6
f 436/6/6 437/6/6 450/6/6
f 449/2/6 436/2/6 450/2/6
f 437/2/6 438/2/6 451/2/6
f 450/6/6 437/6/6 451/6/6
f 438/6/6 439/6/6 452/6/6
f 451/2/6 438/2/6 452/2/6
f 439/2/6 440/2/6 453/2/6
f 452/6/6 439/6/6 453/6/6
f 424/6/6 346/6/6 454/6/6
f 453/2/6 440/2/6 454/2/6
f 440/2/6 424/2/6 454/2/6
f 452/6/6 453/6/6 455/6/6
f 450/6/6 451/6/6 455/6/6
f 453/6/6 454/6/6 455/6/6
f 447/6/6 448/6/6 455/6/6
f 446/6/6 447/6/6 455/6/6
f 445/6/6 446/6/6 455/6/6
f 444/6/6 445/6/6 455/6/6
f 443/6/6 444/6/6 455/6/6
f 442/6/6 443/6/6 455/6/6
f 441/6/6 442/6/6 455/6/6
f 345/6/6 441/6/6 455/6/6
f 449/6/6 450/6/6 455/6/6
f 451/6/6 452/6/6 455/6/6
f 448/6/6 449/6/6 455/6/6
f 454/6/6 346/6/6 456/6/6
f 455/6/6 454/6/6 456/6/6
