# MagicaVoxel @ Ephtracy

# group
g UndefinedTile

# material
mtllib UndefinedTile.mtl
usemtl palette

# normals
vn -1 0 0
vn 1 0 0
vn 0 0 1
vn 0 0 -1
vn 0 -1 0
vn 0 1 0

# texcoords
vt 0.00195313 0.5
vt 0.373047 0.5
vt 0.748047 0.5
vt 0.970703 0.5

# verts
v -22.5 9 3.5
v -22.5 9 -6.5
v -22.5 14 3.5
v -22.5 14 -6.5
v -22.5 18 -3.5
v -22.5 18 -12.5
v -22.5 23 -12.5
v -22.5 23 -13.5
v -22.5 28 -3.5
v -22.5 28 -13.5
v -19.5 0 19.5
v -19.5 0 -20.5
v -19.5 9 3.5
v -19.5 9 -6.5
v -19.5 12 19.5
v -19.5 12 3.5
v -19.5 12 -6.5
v -19.5 12 -20.5
v -19.5 14 3.5
v -19.5 14 -6.5
v -19.5 18 -3.5
v -19.5 18 -12.5
v -19.5 22 19.5
v -19.5 22 -3.5
v -19.5 22 -12.5
v -19.5 22 -20.5
v -19.5 23 -12.5
v -19.5 23 -13.5
v -19.5 28 -3.5
v -19.5 28 -13.5
v -19.5 29 19.5
v -19.5 29 -20.5
v -19.5 40 19.5
v -19.5 40 -20.5
v -14.5 40 12.5
v -14.5 40 5.5
v -14.5 40 -5.5
v -14.5 40 -11.5
v -14.5 41 12.5
v -14.5 41 5.5
v -14.5 41 -5.5
v -14.5 41 -6.5
v -14.5 41 -10.5
v -14.5 41 -11.5
v -14.5 42 -6.5
v -14.5 42 -10.5
v -9.5 12 -20.5
v -9.5 12 -22.5
v -9.5 17 -20.5
v -9.5 17 -22.5
v -4.5 17 -20.5
v -4.5 17 -22.5
v -4.5 22 -20.5
v -4.5 26 -20.5
v -4.5 26 -22.5
v -3.5 40 -6.5
v -3.5 40 -9.5
v -3.5 41 -6.5
v -3.5 41 -9.5
v 0.5 40 -14.5
v 0.5 40 -17.5
v 0.5 41 -14.5
v 0.5 41 -17.5
v 9.5 40 10.5
v 9.5 40 5.5
v 9.5 40 -4.5
v 9.5 40 -9.5
v 9.5 41 10.5
v 9.5 41 5.5
v 9.5 41 -4.5
v 9.5 41 -9.5
v 10.5 11 -20.5
v 10.5 11 -22.5
v 10.5 12 -20.5
v 10.5 16 -20.5
v 10.5 16 -22.5
v 10.5 40 5.5
v 10.5 40 4.5
v 10.5 41 5.5
v 10.5 41 4.5
v -10.5 41 -6.5
v -10.5 41 -10.5
v -10.5 42 -6.5
v -10.5 42 -10.5
v -8.5 40 6.5
v -8.5 40 5.5
v -8.5 40 -5.5
v -8.5 40 -11.5
v -8.5 41 6.5
v -8.5 41 5.5
v -8.5 41 -5.5
v -8.5 41 -11.5
v -7.5 40 12.5
v -7.5 40 6.5
v -7.5 41 12.5
v -7.5 41 6.5
v -4.5 12 -20.5
v -4.5 12 -22.5
v -4.5 17 -20.5
v -4.5 17 -22.5
v 1.5 40 -6.5
v 1.5 40 -9.5
v 1.5 41 -6.5
v 1.5 41 -9.5
v 4.5 17 -20.5
v 4.5 17 -22.5
v 4.5 22 -20.5
v 4.5 26 -20.5
v 4.5 26 -22.5
v 8.5 40 -14.5
v 8.5 40 -17.5
v 8.5 41 -14.5
v 8.5 41 -17.5
v 12.5 40 -4.5
v 12.5 40 -5.5
v 12.5 41 -4.5
v 12.5 41 -5.5
v 13.5 40 -5.5
v 13.5 40 -9.5
v 13.5 41 -5.5
v 13.5 41 -9.5
v 15.5 11 -20.5
v 15.5 11 -22.5
v 15.5 12 -20.5
v 15.5 16 -20.5
v 15.5 16 -22.5
v 17.5 40 10.5
v 17.5 40 4.5
v 17.5 41 10.5
v 17.5 41 4.5
v 20.5 0 19.5
v 20.5 0 -20.5
v 20.5 9 3.5
v 20.5 9 -6.5
v 20.5 12 19.5
v 20.5 12 3.5
v 20.5 12 -6.5
v 20.5 12 -20.5
v 20.5 14 3.5
v 20.5 14 -6.5
v 20.5 18 -3.5
v 20.5 18 -12.5
v 20.5 22 19.5
v 20.5 22 -3.5
v 20.5 22 -12.5
v 20.5 22 -20.5
v 20.5 23 -12.5
v 20.5 23 -13.5
v 20.5 28 -3.5
v 20.5 28 -13.5
v 20.5 29 19.5
v 20.5 29 -20.5
v 20.5 40 19.5
v 20.5 40 -20.5
v 22.5 9 3.5
v 22.5 9 -6.5
v 22.5 14 3.5
v 22.5 14 -6.5
v 22.5 18 -3.5
v 22.5 18 -12.5
v 22.5 23 -12.5
v 22.5 23 -13.5
v 22.5 28 -3.5
v 22.5 28 -13.5
v -19.5 0 19.5
v -19.5 12 19.5
v -19.5 22 19.5
v -19.5 29 19.5
v -19.5 40 19.5
v 20.5 0 19.5
v 20.5 12 19.5
v 20.5 22 19.5
v 20.5 29 19.5
v 20.5 40 19.5
v -14.5 40 12.5
v -14.5 41 12.5
v -7.5 40 12.5
v -7.5 41 12.5
v 9.5 40 10.5
v 9.5 41 10.5
v 17.5 40 10.5
v 17.5 41 10.5
v -22.5 9 3.5
v -22.5 14 3.5
v -19.5 9 3.5
v -19.5 12 3.5
v -19.5 14 3.5
v 20.5 9 3.5
v 20.5 12 3.5
v 20.5 14 3.5
v 22.5 9 3.5
v 22.5 14 3.5
v -22.5 18 -3.5
v -22.5 28 -3.5
v -19.5 18 -3.5
v -19.5 22 -3.5
v -19.5 28 -3.5
v 20.5 18 -3.5
v 20.5 22 -3.5
v 20.5 28 -3.5
v 22.5 18 -3.5
v 22.5 28 -3.5
v 9.5 40 -4.5
v 9.5 41 -4.5
v 12.5 40 -4.5
v 12.5 41 -4.5
v -14.5 40 -5.5
v -14.5 41 -5.5
v -8.5 40 -5.5
v -8.5 41 -5.5
v 12.5 40 -5.5
v 12.5 41 -5.5
v 13.5 40 -5.5
v 13.5 41 -5.5
v -14.5 41 -6.5
v -14.5 42 -6.5
v -10.5 41 -6.5
v -10.5 42 -6.5
v -3.5 40 -6.5
v -3.5 41 -6.5
v 1.5 40 -6.5
v 1.5 41 -6.5
v 0.5 40 -14.5
v 0.5 41 -14.5
v 8.5 40 -14.5
v 8.5 41 -14.5
v -8.5 40 6.5
v -8.5 41 6.5
v -7.5 40 6.5
v -7.5 41 6.5
v -14.5 40 5.5
v -14.5 41 5.5
v -8.5 40 5.5
v -8.5 41 5.5
v 9.5 40 5.5
v 9.5 41 5.5
v 10.5 40 5.5
v 10.5 41 5.5
v 10.5 40 4.5
v 10.5 41 4.5
v 17.5 40 4.5
v 17.5 41 4.5
v -22.5 9 -6.5
v -22.5 14 -6.5
v -19.5 9 -6.5
v -19.5 12 -6.5
v -19.5 14 -6.5
v 20.5 9 -6.5
v 20.5 12 -6.5
v 20.5 14 -6.5
v 22.5 9 -6.5
v 22.5 14 -6.5
v -3.5 40 -9.5
v -3.5 41 -9.5
v 1.5 40 -9.5
v 1.5 41 -9.5
v 9.5 40 -9.5
v 9.5 41 -9.5
v 13.5 40 -9.5
v 13.5 41 -9.5
v -14.5 41 -10.5
v -14.5 42 -10.5
v -10.5 41 -10.5
v -10.5 42 -10.5
v -14.5 40 -11.5
v -14.5 41 -11.5
v -8.5 40 -11.5
v -8.5 41 -11.5
v -22.5 18 -12.5
v -22.5 23 -12.5
v -19.5 18 -12.5
v -19.5 22 -12.5
v -19.5 23 -12.5
v 20.5 18 -12.5
v 20.5 22 -12.5
v 20.5 23 -12.5
v 22.5 18 -12.5
v 22.5 23 -12.5
v -22.5 23 -13.5
v -22.5 28 -13.5
v -19.5 23 -13.5
v -19.5 28 -13.5
v 20.5 23 -13.5
v 20.5 28 -13.5
v 22.5 23 -13.5
v 22.5 28 -13.5
v 0.5 40 -17.5
v 0.5 41 -17.5
v 8.5 40 -17.5
v 8.5 41 -17.5
v -19.5 0 -20.5
v -19.5 12 -20.5
v -19.5 22 -20.5
v -19.5 29 -20.5
v -19.5 40 -20.5
v -9.5 12 -20.5
v -9.5 17 -20.5
v -4.5 12 -20.5
v -4.5 17 -20.5
v -4.5 22 -20.5
v -4.5 26 -20.5
v 4.5 17 -20.5
v 4.5 22 -20.5
v 4.5 26 -20.5
v 10.5 11 -20.5
v 10.5 12 -20.5
v 10.5 16 -20.5
v 15.5 11 -20.5
v 15.5 12 -20.5
v 15.5 16 -20.5
v 20.5 0 -20.5
v 20.5 12 -20.5
v 20.5 22 -20.5
v 20.5 29 -20.5
v 20.5 40 -20.5
v -9.5 12 -22.5
v -9.5 17 -22.5
v -4.5 12 -22.5
v -4.5 17 -22.5
v -4.5 26 -22.5
v 4.5 17 -22.5
v 4.5 26 -22.5
v 10.5 11 -22.5
v 10.5 16 -22.5
v 15.5 11 -22.5
v 15.5 16 -22.5
v -19.5 0 19.5
v 20.5 0 19.5
v -19.5 0 -20.5
v 20.5 0 -20.5
v -22.5 9 3.5
v -19.5 9 3.5
v 20.5 9 3.5
v 22.5 9 3.5
v -22.5 9 -6.5
v -19.5 9 -6.5
v 20.5 9 -6.5
v 22.5 9 -6.5
v 10.5 11 -20.5
v 15.5 11 -20.5
v 10.5 11 -22.5
v 15.5 11 -22.5
v -9.5 12 -20.5
v -4.5 12 -20.5
v -9.5 12 -22.5
v -4.5 12 -22.5
v -4.5 17 -20.5
v 4.5 17 -20.5
v -4.5 17 -22.5
v 4.5 17 -22.5
v -22.5 18 -3.5
v -19.5 18 -3.5
v 20.5 18 -3.5
v 22.5 18 -3.5
v -22.5 18 -12.5
v -19.5 18 -12.5
v 20.5 18 -12.5
v 22.5 18 -12.5
v -22.5 23 -12.5
v -19.5 23 -12.5
v 20.5 23 -12.5
v 22.5 23 -12.5
v -22.5 23 -13.5
v -19.5 23 -13.5
v 20.5 23 -13.5
v 22.5 23 -13.5
v -22.5 14 3.5
v -19.5 14 3.5
v 20.5 14 3.5
v 22.5 14 3.5
v -22.5 14 -6.5
v -19.5 14 -6.5
v 20.5 14 -6.5
v 22.5 14 -6.5
v 10.5 16 -20.5
v 15.5 16 -20.5
v 10.5 16 -22.5
v 15.5 16 -22.5
v -9.5 17 -20.5
v -4.5 17 -20.5
v -9.5 17 -22.5
v -4.5 17 -22.5
v -4.5 26 -20.5
v 4.5 26 -20.5
v -4.5 26 -22.5
v 4.5 26 -22.5
v -22.5 28 -3.5
v -19.5 28 -3.5
v 20.5 28 -3.5
v 22.5 28 -3.5
v -22.5 28 -13.5
v -19.5 28 -13.5
v 20.5 28 -13.5
v 22.5 28 -13.5
v -19.5 40 19.5
v 20.5 40 19.5
v -14.5 40 12.5
v -7.5 40 12.5
v 9.5 40 10.5
v 17.5 40 10.5
v -8.5 40 6.5
v -7.5 40 6.5
v -14.5 40 5.5
v -8.5 40 5.5
v 9.5 40 5.5
v 10.5 40 5.5
v 10.5 40 4.5
v 17.5 40 4.5
v 9.5 40 -4.5
v 12.5 40 -4.5
v -14.5 40 -5.5
v -8.5 40 -5.5
v 12.5 40 -5.5
v 13.5 40 -5.5
v -3.5 40 -6.5
v 1.5 40 -6.5
v -3.5 40 -9.5
v 1.5 40 -9.5
v 9.5 40 -9.5
v 13.5 40 -9.5
v -14.5 40 -11.5
v -8.5 40 -11.5
v 0.5 40 -14.5
v 8.5 40 -14.5
v 0.5 40 -17.5
v 8.5 40 -17.5
v -19.5 40 -20.5
v 20.5 40 -20.5
v -14.5 41 12.5
v -7.5 41 12.5
v 9.5 41 10.5
v 17.5 41 10.5
v -8.5 41 6.5
v -7.5 41 6.5
v -14.5 41 5.5
v -8.5 41 5.5
v 9.5 41 5.5
v 10.5 41 5.5
v 10.5 41 4.5
v 17.5 41 4.5
v 9.5 41 -4.5
v 12.5 41 -4.5
v -14.5 41 -5.5
v -8.5 41 -5.5
v 12.5 41 -5.5
v 13.5 41 -5.5
v -14.5 41 -6.5
v -10.5 41 -6.5
v -3.5 41 -6.5
v 1.5 41 -6.5
v -3.5 41 -9.5
v 1.5 41 -9.5
v 9.5 41 -9.5
v 13.5 41 -9.5
v -14.5 41 -10.5
v -10.5 41 -10.5
v -14.5 41 -11.5
v -8.5 41 -11.5
v 0.5 41 -14.5
v 8.5 41 -14.5
v 0.5 41 -17.5
v 8.5 41 -17.5
v -14.5 42 -6.5
v -10.5 42 -6.5
v -14.5 42 -10.5
v -10.5 42 -10.5

# faces
f 3/1/1 2/1/1 1/1/1
f 4/1/1 2/1/1 3/1/1
f 7/1/1 6/1/1 5/1/1
f 9/1/1 7/1/1 5/1/1
f 9/1/1 8/1/1 7/1/1
f 10/1/1 8/1/1 9/1/1
f 13/4/1 12/4/1 11/4/1
f 14/4/1 12/4/1 13/4/1
f 15/4/1 13/4/1 11/4/1
f 16/4/1 13/4/1 15/4/1
f 17/4/1 12/4/1 14/4/1
f 18/4/1 12/4/1 17/4/1
f 19/1/1 16/1/1 15/1/1
f 20/1/1 18/1/1 17/1/1
f 21/1/1 20/1/1 19/1/1
f 22/1/1 18/1/1 20/1/1
f 22/1/1 20/1/1 21/1/1
f 23/1/1 19/1/1 15/1/1
f 23/1/1 21/1/1 19/1/1
f 24/1/1 21/1/1 23/1/1
f 25/1/1 18/1/1 22/1/1
f 26/1/1 18/1/1 25/1/1
f 27/2/1 26/2/1 25/2/1
f 28/2/1 26/2/1 27/2/1
f 29/2/1 24/2/1 23/2/1
f 30/2/1 26/2/1 28/2/1
f 31/2/1 29/2/1 23/2/1
f 31/2/1 30/2/1 29/2/1
f 32/2/1 26/2/1 30/2/1
f 32/2/1 30/2/1 31/2/1
f 33/3/1 32/3/1 31/3/1
f 34/3/1 32/3/1 33/3/1
f 39/3/1 36/3/1 35/3/1
f 40/3/1 36/3/1 39/3/1
f 41/3/1 38/3/1 37/3/1
f 42/3/1 38/3/1 41/3/1
f 43/3/1 38/3/1 42/3/1
f 44/3/1 38/3/1 43/3/1
f 45/3/1 43/3/1 42/3/1
f 46/3/1 43/3/1 45/3/1
f 49/1/1 48/1/1 47/1/1
f 50/1/1 48/1/1 49/1/1
f 53/1/1 52/1/1 51/1/1
f 54/1/1 52/1/1 53/1/1
f 55/1/1 52/1/1 54/1/1
f 58/3/1 57/3/1 56/3/1
f 59/3/1 57/3/1 58/3/1
f 62/3/1 61/3/1 60/3/1
f 63/3/1 61/3/1 62/3/1
f 68/3/1 65/3/1 64/3/1
f 69/3/1 65/3/1 68/3/1
f 70/3/1 67/3/1 66/3/1
f 71/3/1 67/3/1 70/3/1
f 74/1/1 73/1/1 72/1/1
f 75/1/1 73/1/1 74/1/1
f 76/1/1 73/1/1 75/1/1
f 79/3/1 78/3/1 77/3/1
f 80/3/1 78/3/1 79/3/1
f 81/3/2 82/3/2 83/3/2
f 83/3/2 82/3/2 84/3/2
f 85/3/2 86/3/2 89/3/2
f 89/3/2 86/3/2 90/3/2
f 87/3/2 88/3/2 91/3/2
f 91/3/2 88/3/2 92/3/2
f 93/3/2 94/3/2 95/3/2
f 95/3/2 94/3/2 96/3/2
f 97/1/2 98/1/2 99/1/2
f 99/1/2 98/1/2 100/1/2
f 101/3/2 102/3/2 103/3/2
f 103/3/2 102/3/2 104/3/2
f 105/1/2 106/1/2 107/1/2
f 107/1/2 106/1/2 108/1/2
f 108/1/2 106/1/2 109/1/2
f 110/3/2 111/3/2 112/3/2
f 112/3/2 111/3/2 113/3/2
f 114/3/2 115/3/2 116/3/2
f 116/3/2 115/3/2 117/3/2
f 118/3/2 119/3/2 120/3/2
f 120/3/2 119/3/2 121/3/2
f 122/1/2 123/1/2 124/1/2
f 124/1/2 123/1/2 125/1/2
f 125/1/2 123/1/2 126/1/2
f 127/3/2 128/3/2 129/3/2
f 129/3/2 128/3/2 130/3/2
f 131/4/2 132/4/2 133/4/2
f 133/4/2 132/4/2 134/4/2
f 131/4/2 133/4/2 135/4/2
f 135/4/2 133/4/2 136/4/2
f 134/4/2 132/4/2 137/4/2
f 137/4/2 132/4/2 138/4/2
f 135/1/2 136/1/2 139/1/2
f 137/1/2 138/1/2 140/1/2
f 139/1/2 140/1/2 141/1/2
f 140/1/2 138/1/2 142/1/2
f 141/1/2 140/1/2 142/1/2
f 135/1/2 139/1/2 143/1/2
f 139/1/2 141/1/2 143/1/2
f 143/1/2 141/1/2 144/1/2
f 142/1/2 138/1/2 145/1/2
f 145/1/2 138/1/2 146/1/2
f 145/2/2 146/2/2 147/2/2
f 147/2/2 146/2/2 148/2/2
f 143/2/2 144/2/2 149/2/2
f 148/2/2 146/2/2 150/2/2
f 143/2/2 149/2/2 151/2/2
f 149/2/2 150/2/2 151/2/2
f 150/2/2 146/2/2 152/2/2
f 151/2/2 150/2/2 152/2/2
f 151/3/2 152/3/2 153/3/2
f 153/3/2 152/3/2 154/3/2
f 155/1/2 156/1/2 157/1/2
f 157/1/2 156/1/2 158/1/2
f 159/1/2 160/1/2 161/1/2
f 159/1/2 161/1/2 163/1/2
f 161/1/2 162/1/2 163/1/2
f 163/1/2 162/1/2 164/1/2
f 170/4/3 166/4/3 165/4/3
f 171/1/3 167/1/3 166/1/3
f 171/4/3 166/4/3 170/4/3
f 172/2/3 168/2/3 167/2/3
f 172/1/3 167/1/3 171/1/3
f 173/3/3 169/3/3 168/3/3
f 173/2/3 168/2/3 172/2/3
f 174/3/3 169/3/3 173/3/3
f 177/3/3 176/3/3 175/3/3
f 178/3/3 176/3/3 177/3/3
f 181/3/3 180/3/3 179/3/3
f 182/3/3 180/3/3 181/3/3
f 185/1/3 184/1/3 183/1/3
f 186/1/3 184/1/3 185/1/3
f 187/1/3 184/1/3 186/1/3
f 191/1/3 189/1/3 188/1/3
f 191/1/3 190/1/3 189/1/3
f 192/1/3 190/1/3 191/1/3
f 195/1/3 194/1/3 193/1/3
f 196/1/3 194/1/3 195/1/3
f 197/1/3 194/1/3 196/1/3
f 201/1/3 199/1/3 198/1/3
f 201/1/3 200/1/3 199/1/3
f 202/1/3 200/1/3 201/1/3
f 205/3/3 204/3/3 203/3/3
f 206/3/3 204/3/3 205/3/3
f 209/3/3 208/3/3 207/3/3
f 210/3/3 208/3/3 209/3/3
f 213/3/3 212/3/3 211/3/3
f 214/3/3 212/3/3 213/3/3
f 217/3/3 216/3/3 215/3/3
f 218/3/3 216/3/3 217/3/3
f 221/3/3 220/3/3 219/3/3
f 222/3/3 220/3/3 221/3/3
f 225/3/3 224/3/3 223/3/3
f 226/3/3 224/3/3 225/3/3
f 227/3/4 228/3/4 229/3/4
f 229/3/4 228/3/4 230/3/4
f 231/3/4 232/3/4 233/3/4
f 233/3/4 232/3/4 234/3/4
f 235/3/4 236/3/4 237/3/4
f 237/3/4 236/3/4 238/3/4
f 239/3/4 240/3/4 241/3/4
f 241/3/4 240/3/4 242/3/4
f 243/1/4 244/1/4 245/1/4
f 245/1/4 244/1/4 246/1/4
f 246/1/4 244/1/4 247/1/4
f 248/1/4 249/1/4 251/1/4
f 249/1/4 250/1/4 251/1/4
f 251/1/4 250/1/4 252/1/4
f 253/3/4 254/3/4 255/3/4
f 255/3/4 254/3/4 256/3/4
f 257/3/4 258/3/4 259/3/4
f 259/3/4 258/3/4 260/3/4
f 261/3/4 262/3/4 263/3/4
f 263/3/4 262/3/4 264/3/4
f 265/3/4 266/3/4 267/3/4
f 267/3/4 266/3/4 268/3/4
f 269/1/4 270/1/4 271/1/4
f 271/1/4 270/1/4 272/1/4
f 272/1/4 270/1/4 273/1/4
f 274/1/4 275/1/4 277/1/4
f 275/1/4 276/1/4 277/1/4
f 277/1/4 276/1/4 278/1/4
f 279/1/4 280/1/4 281/1/4
f 281/1/4 280/1/4 282/1/4
f 283/1/4 284/1/4 285/1/4
f 285/1/4 284/1/4 286/1/4
f 287/3/4 288/3/4 289/3/4
f 289/3/4 288/3/4 290/3/4
f 291/4/4 292/4/4 296/4/4
f 292/1/4 293/1/4 296/1/4
f 296/1/4 293/1/4 297/1/4
f 291/4/4 296/4/4 298/4/4
f 297/1/4 293/1/4 299/1/4
f 293/2/4 294/2/4 300/2/4
f 299/1/4 293/1/4 300/1/4
f 300/2/4 294/2/4 301/2/4
f 298/1/4 299/1/4 302/1/4
f 301/2/4 294/2/4 304/2/4
f 291/4/4 298/4/4 305/4/4
f 302/1/4 303/1/4 306/1/4
f 305/4/4 298/4/4 306/4/4
f 298/1/4 302/1/4 306/1/4
f 306/1/4 303/1/4 307/1/4
f 291/4/4 305/4/4 308/4/4
f 307/1/4 303/1/4 310/1/4
f 308/4/4 309/4/4 311/4/4
f 291/4/4 308/4/4 311/4/4
f 309/1/4 310/1/4 312/1/4
f 311/4/4 309/4/4 312/4/4
f 303/2/4 304/2/4 313/2/4
f 312/1/4 310/1/4 313/1/4
f 310/1/4 303/1/4 313/1/4
f 294/3/4 295/3/4 314/3/4
f 313/2/4 304/2/4 314/2/4
f 304/2/4 294/2/4 314/2/4
f 314/3/4 295/3/4 315/3/4
f 316/1/4 317/1/4 318/1/4
f 318/1/4 317/1/4 319/1/4
f 319/1/4 320/1/4 321/1/4
f 321/1/4 320/1/4 322/1/4
f 323/1/4 324/1/4 325/1/4
f 325/1/4 324/1/4 326/1/4
f 329/4/5 328/4/5 327/4/5
f 330/4/5 328/4/5 329/4/5
f 335/1/5 332/1/5 331/1/5
f 336/1/5 332/1/5 335/1/5
f 337/1/5 334/1/5 333/1/5
f 338/1/5 334/1/5 337/1/5
f 341/1/5 340/1/5 339/1/5
f 342/1/5 340/1/5 341/1/5
f 345/1/5 344/1/5 343/1/5
f 346/1/5 344/1/5 345/1/5
f 349/1/5 348/1/5 347/1/5
f 350/1/5 348/1/5 349/1/5
f 355/1/5 352/1/5 351/1/5
f 356/1/5 352/1/5 355/1/5
f 357/1/5 354/1/5 353/1/5
f 358/1/5 354/1/5 357/1/5
f 363/1/5 360/1/5 359/1/5
f 364/1/5 360/1/5 363/1/5
f 365/1/5 362/1/5 361/1/5
f 366/1/5 362/1/5 365/1/5
f 367/1/6 368/1/6 371/1/6
f 371/1/6 368/1/6 372/1/6
f 369/1/6 370/1/6 373/1/6
f 373/1/6 370/1/6 374/1/6
f 375/1/6 376/1/6 377/1/6
f 377/1/6 376/1/6 378/1/6
f 379/1/6 380/1/6 381/1/6
f 381/1/6 380/1/6 382/1/6
f 383/1/6 384/1/6 385/1/6
f 385/1/6 384/1/6 386/1/6
f 387/1/6 388/1/6 391/1/6
f 391/1/6 388/1/6 392/1/6
f 389/1/6 390/1/6 393/1/6
f 393/1/6 390/1/6 394/1/6
f 395/3/6 396/3/6 397/3/6
f 397/3/6 396/3/6 398/3/6
f 398/3/6 396/3/6 399/3/6
f 399/3/6 396/3/6 400/3/6
f 398/3/6 399/3/6 402/3/6
f 395/3/6 397/3/6 403/3/6
f 401/3/6 402/3/6 404/3/6
f 402/3/6 399/3/6 405/3/6
f 404/3/6 402/3/6 405/3/6
f 403/3/6 404/3/6 407/3/6
f 405/3/6 406/3/6 407/3/6
f 404/3/6 405/3/6 407/3/6
f 400/3/6 396/3/6 408/3/6
f 403/3/6 407/3/6 409/3/6
f 407/3/6 408/3/6 409/3/6
f 409/3/6 408/3/6 410/3/6
f 395/3/6 403/3/6 411/3/6
f 403/3/6 409/3/6 411/3/6
f 411/3/6 409/3/6 412/3/6
f 410/3/6 408/3/6 413/3/6
f 413/3/6 408/3/6 414/3/6
f 412/3/6 409/3/6 415/3/6
f 415/3/6 409/3/6 416/3/6
f 412/3/6 415/3/6 417/3/6
f 416/3/6 409/3/6 418/3/6
f 418/3/6 409/3/6 419/3/6
f 414/3/6 408/3/6 420/3/6
f 395/3/6 411/3/6 421/3/6
f 418/3/6 419/3/6 422/3/6
f 419/3/6 420/3/6 422/3/6
f 412/3/6 417/3/6 422/3/6
f 417/3/6 418/3/6 422/3/6
f 422/3/6 420/3/6 423/3/6
f 421/3/6 422/3/6 423/3/6
f 423/3/6 420/3/6 424/3/6
f 421/3/6 423/3/6 425/3/6
f 424/3/6 420/3/6 426/3/6
f 395/3/6 421/3/6 427/3/6
f 425/3/6 426/3/6 427/3/6
f 421/3/6 425/3/6 427/3/6
f 426/3/6 420/3/6 428/3/6
f 427/3/6 426/3/6 428/3/6
f 408/3/6 396/3/6 428/3/6
f 420/3/6 408/3/6 428/3/6
f 429/3/6 430/3/6 433/3/6
f 433/3/6 430/3/6 434/3/6
f 429/3/6 433/3/6 435/3/6
f 435/3/6 433/3/6 436/3/6
f 431/3/6 432/3/6 437/3/6
f 437/3/6 432/3/6 438/3/6
f 438/3/6 432/3/6 439/3/6
f 439/3/6 432/3/6 440/3/6
f 441/3/6 442/3/6 445/3/6
f 443/3/6 444/3/6 447/3/6
f 447/3/6 444/3/6 448/3/6
f 449/3/6 450/3/6 451/3/6
f 451/3/6 450/3/6 452/3/6
f 445/3/6 446/3/6 453/3/6
f 441/3/6 445/3/6 453/3/6
f 453/3/6 446/3/6 454/3/6
f 448/3/6 444/3/6 456/3/6
f 455/3/6 456/3/6 457/3/6
f 456/3/6 444/3/6 458/3/6
f 457/3/6 456/3/6 458/3/6
f 459/3/6 460/3/6 461/3/6
f 461/3/6 460/3/6 462/3/6
f 463/3/6 464/3/6 465/3/6
f 465/3/6 464/3/6 466/3/6
